Cum Şub 26 01:00:02 +03 2021: digi environment activated

Cum Şub 26 01:00:02 +03 2021: running main_lxml.py

Cum Şub 26 01:10:13 +03 2021: finished main_lxml.py

Cum Şub 26 01:10:13 +03 2021: running deactivate_all_loans.sql

Cum Şub 26 01:10:13 +03 2021: finished deactivate_all_loans.sql

Cum Şub 26 01:10:13 +03 2021: running transfer_scraped_data.sql

Cum Şub 26 01:12:22 +03 2021: finshed transfer_scraped_data.py

Cum Şub 26 01:12:22 +03 2021: running ensure_empty_summary_and_matrix.sql

Cum Şub 26 01:12:22 +03 2021: finished ensure_empty_summary_and_matrix.sql

Cum Şub 26 01:12:22 +03 2021: running loan_summary.py

Cum Şub 26 01:12:28 +03 2021: finished loan_summary.py

Cum Şub 26 01:12:28 +03 2021: running loan_summary_matrix.py

Cum Şub 26 01:12:37 +03 2021: finished loan_summary_matrix.py

Cum Şub 26 01:12:37 +03 2021: running set_cheapest_loans.sql

Cum Şub 26 01:12:38 +03 2021: finished set_cheapest_loans.sql

Cum Şub 26 01:12:38 +03 2021: restarting apache2 server...

Cum Şub 26 01:12:40 +03 2021: success! printf \n
