Pzt Mar 22 01:00:03 +03 2021: digi environment activated

Pzt Mar 22 01:00:03 +03 2021: running main_lxml.py

Pzt Mar 22 01:12:07 +03 2021: finished main_lxml.py

Pzt Mar 22 01:12:07 +03 2021: running deactivate_all_loans.sql

Pzt Mar 22 01:12:08 +03 2021: finished deactivate_all_loans.sql

Pzt Mar 22 01:12:08 +03 2021: running transfer_scraped_data.py

Pzt Mar 22 01:13:08 +03 2021: finshed transfer_scraped_data.py

Pzt Mar 22 01:13:08 +03 2021: running fill_missing_criticals.py

Pzt Mar 22 01:15:00 +03 2021: finshed fill_missing_criticals.py

Pzt Mar 22 01:15:00 +03 2021: running ensure_empty_summary_and_matrix.sql

Pzt Mar 22 01:15:00 +03 2021: finished ensure_empty_summary_and_matrix.sql

Pzt Mar 22 01:15:00 +03 2021: running loan_summary.py

Pzt Mar 22 01:15:04 +03 2021: finished loan_summary.py

Pzt Mar 22 01:15:04 +03 2021: running loan_summary_matrix.py

Pzt Mar 22 01:15:14 +03 2021: finished loan_summary_matrix.py

Pzt Mar 22 01:15:14 +03 2021: running interest_change_buckets.py

Pzt Mar 22 01:16:06 +03 2021: finished interest_change_buckets.py

Pzt Mar 22 01:16:06 +03 2021: restarting apache2 server...

Pzt Mar 22 01:16:08 +03 2021: success! printf \n
