Çrş Şub 10 01:00:02 +03 2021: digi environment activated

Çrş Şub 10 01:00:02 +03 2021: running main_lxml.py

Çrş Şub 10 01:09:54 +03 2021: finished main_lxml.py

Çrş Şub 10 01:09:54 +03 2021: running deactivate_all_loans.sql

Çrş Şub 10 01:09:55 +03 2021: finished deactivate_all_loans.sql

Çrş Şub 10 01:09:55 +03 2021: running transfer_scraped_data.sql

Çrş Şub 10 01:11:49 +03 2021: finshed transfer_scraped_data.py

Çrş Şub 10 01:11:49 +03 2021: running ensure_empty_summary_and_matrix.sql

Çrş Şub 10 01:11:49 +03 2021: finished ensure_empty_summary_and_matrix.sql

Çrş Şub 10 01:11:49 +03 2021: running loan_summary.py

Çrş Şub 10 01:11:55 +03 2021: finished loan_summary.py

Çrş Şub 10 01:11:55 +03 2021: running loan_summary_matrix.py

Çrş Şub 10 01:12:04 +03 2021: finished loan_summary_matrix.py

Çrş Şub 10 01:12:04 +03 2021: running set_cheapest_loans.sql

Çrş Şub 10 01:12:04 +03 2021: finished set_cheapest_loans.sql

Çrş Şub 10 01:12:04 +03 2021: restarting apache2 server...

Çrş Şub 10 01:12:07 +03 2021: success! printf \n
