Prş Mar 18 01:00:02 +03 2021: digi environment activated

Prş Mar 18 01:00:02 +03 2021: running main_lxml.py

Prş Mar 18 01:08:18 +03 2021: finished main_lxml.py

Prş Mar 18 01:08:18 +03 2021: running deactivate_all_loans.sql

Prş Mar 18 01:08:19 +03 2021: finished deactivate_all_loans.sql

Prş Mar 18 01:08:19 +03 2021: running transfer_scraped_data.py

Prş Mar 18 01:10:02 +03 2021: finshed transfer_scraped_data.py

Prş Mar 18 01:10:02 +03 2021: running fill_missing_criticals.py

Prş Mar 18 01:12:20 +03 2021: finshed fill_missing_criticals.py

Prş Mar 18 01:12:20 +03 2021: running ensure_empty_summary_and_matrix.sql

Prş Mar 18 01:12:21 +03 2021: finished ensure_empty_summary_and_matrix.sql

Prş Mar 18 01:12:21 +03 2021: running loan_summary.py

Prş Mar 18 01:12:27 +03 2021: finished loan_summary.py

Prş Mar 18 01:12:27 +03 2021: running loan_summary_matrix.py

Prş Mar 18 01:12:37 +03 2021: finished loan_summary_matrix.py

Prş Mar 18 01:12:37 +03 2021: running interest_change_buckets.py

Prş Mar 18 01:13:28 +03 2021: finished interest_change_buckets.py

Prş Mar 18 01:13:28 +03 2021: restarting apache2 server...

Prş Mar 18 01:13:31 +03 2021: success! printf \n
