Paz Şub 21 01:00:01 +03 2021: digi environment activated

Paz Şub 21 01:00:01 +03 2021: running main_lxml.py

Paz Şub 21 01:11:54 +03 2021: finished main_lxml.py

Paz Şub 21 01:11:54 +03 2021: running deactivate_all_loans.sql

Paz Şub 21 01:11:55 +03 2021: finished deactivate_all_loans.sql

Paz Şub 21 01:11:55 +03 2021: running transfer_scraped_data.sql

Paz Şub 21 01:13:53 +03 2021: finshed transfer_scraped_data.py

Paz Şub 21 01:13:53 +03 2021: running ensure_empty_summary_and_matrix.sql

Paz Şub 21 01:13:54 +03 2021: finished ensure_empty_summary_and_matrix.sql

Paz Şub 21 01:13:54 +03 2021: running loan_summary.py

Paz Şub 21 01:13:59 +03 2021: finished loan_summary.py

Paz Şub 21 01:13:59 +03 2021: running loan_summary_matrix.py

Paz Şub 21 01:14:09 +03 2021: finished loan_summary_matrix.py

Paz Şub 21 01:14:09 +03 2021: running set_cheapest_loans.sql

Paz Şub 21 01:14:09 +03 2021: finished set_cheapest_loans.sql

Paz Şub 21 01:14:09 +03 2021: restarting apache2 server...

Paz Şub 21 01:14:11 +03 2021: success! printf \n
