Paz Nis 4 01:00:02 +03 2021: digi environment activated

Paz Nis 4 01:00:02 +03 2021: running main_lxml.py

Paz Nis 4 01:08:37 +03 2021: finished main_lxml.py

Paz Nis 4 01:08:37 +03 2021: running deactivate_all_loans.sql

Paz Nis 4 01:08:37 +03 2021: finished deactivate_all_loans.sql

Paz Nis 4 01:08:37 +03 2021: running transfer_scraped_data.py

Paz Nis 4 01:10:15 +03 2021: finshed transfer_scraped_data.py

Paz Nis 4 01:10:15 +03 2021: running fill_missing_criticals.py

Paz Nis 4 01:12:30 +03 2021: finshed fill_missing_criticals.py

Paz Nis 4 01:12:30 +03 2021: running ensure_empty_summary_and_matrix.sql

Paz Nis 4 01:12:30 +03 2021: finished ensure_empty_summary_and_matrix.sql

Paz Nis 4 01:12:30 +03 2021: running loan_summary.py

Paz Nis 4 01:12:36 +03 2021: finished loan_summary.py

Paz Nis 4 01:12:36 +03 2021: running loan_summary_matrix.py

Paz Nis 4 01:12:46 +03 2021: finished loan_summary_matrix.py

Paz Nis 4 01:12:46 +03 2021: running interest_change_buckets.py

Paz Nis 4 01:13:39 +03 2021: finished interest_change_buckets.py

Paz Nis 4 01:13:39 +03 2021: restarting apache2 server...

Paz Nis 4 01:13:41 +03 2021: success! printf \n
