Prş Şub 25 01:00:02 +03 2021: digi environment activated

Prş Şub 25 01:00:02 +03 2021: running main_lxml.py

Prş Şub 25 01:09:43 +03 2021: finished main_lxml.py

Prş Şub 25 01:09:43 +03 2021: running deactivate_all_loans.sql

Prş Şub 25 01:09:43 +03 2021: finished deactivate_all_loans.sql

Prş Şub 25 01:09:43 +03 2021: running transfer_scraped_data.sql

Prş Şub 25 01:11:58 +03 2021: finshed transfer_scraped_data.py

Prş Şub 25 01:11:58 +03 2021: running ensure_empty_summary_and_matrix.sql

Prş Şub 25 01:11:58 +03 2021: finished ensure_empty_summary_and_matrix.sql

Prş Şub 25 01:11:58 +03 2021: running loan_summary.py

Prş Şub 25 01:12:04 +03 2021: finished loan_summary.py

Prş Şub 25 01:12:04 +03 2021: running loan_summary_matrix.py

Prş Şub 25 01:12:13 +03 2021: finished loan_summary_matrix.py

Prş Şub 25 01:12:13 +03 2021: running set_cheapest_loans.sql

Prş Şub 25 01:12:13 +03 2021: finished set_cheapest_loans.sql

Prş Şub 25 01:12:13 +03 2021: restarting apache2 server...

Prş Şub 25 01:12:16 +03 2021: success! printf \n
