Çrş Mar 17 01:00:02 +03 2021: digi environment activated

Çrş Mar 17 01:00:02 +03 2021: running main_lxml.py

Çrş Mar 17 01:08:56 +03 2021: finished main_lxml.py

Çrş Mar 17 01:08:56 +03 2021: running deactivate_all_loans.sql

Çrş Mar 17 01:08:56 +03 2021: finished deactivate_all_loans.sql

Çrş Mar 17 01:08:56 +03 2021: running transfer_scraped_data.sql

Çrş Mar 17 01:10:31 +03 2021: finshed transfer_scraped_data.py

Çrş Mar 17 01:10:31 +03 2021: running ensure_empty_summary_and_matrix.sql

Çrş Mar 17 01:10:31 +03 2021: finished ensure_empty_summary_and_matrix.sql

Çrş Mar 17 01:10:31 +03 2021: running loan_summary.py

Çrş Mar 17 01:10:37 +03 2021: finished loan_summary.py

Çrş Mar 17 01:10:37 +03 2021: running loan_summary_matrix.py

Çrş Mar 17 01:10:47 +03 2021: finished loan_summary_matrix.py

Çrş Mar 17 01:10:47 +03 2021: running interest_change_buckets.py

Çrş Mar 17 01:11:42 +03 2021: finished interest_change_buckets.py

Çrş Mar 17 01:11:42 +03 2021: restarting apache2 server...

Çrş Mar 17 01:11:45 +03 2021: success! printf \n
Çrş Mar 17 06:30:16 +03 2021: digi environment activated

Çrş Mar 17 06:30:16 +03 2021: running main_lxml.py

Çrş Mar 17 06:38:16 +03 2021: finished main_lxml.py

Çrş Mar 17 06:38:16 +03 2021: running deactivate_all_loans.sql

Çrş Mar 17 06:38:17 +03 2021: finished deactivate_all_loans.sql

Çrş Mar 17 06:38:17 +03 2021: running transfer_scraped_data.py

Çrş Mar 17 06:39:57 +03 2021: finshed transfer_scraped_data.py

Çrş Mar 17 06:39:57 +03 2021: running fill_missing_criticals.py

Çrş Mar 17 06:42:17 +03 2021: finshed fill_missing_criticals.py

Çrş Mar 17 06:42:17 +03 2021: running ensure_empty_summary_and_matrix.sql

Çrş Mar 17 06:42:17 +03 2021: finished ensure_empty_summary_and_matrix.sql

Çrş Mar 17 06:42:17 +03 2021: running loan_summary.py

Çrş Mar 17 06:42:23 +03 2021: finished loan_summary.py

Çrş Mar 17 06:42:23 +03 2021: running loan_summary_matrix.py

Çrş Mar 17 06:42:33 +03 2021: finished loan_summary_matrix.py

Çrş Mar 17 06:42:33 +03 2021: running interest_change_buckets.py

Çrş Mar 17 06:43:26 +03 2021: finished interest_change_buckets.py

Çrş Mar 17 06:43:26 +03 2021: restarting apache2 server...

Çrş Mar 17 06:43:29 +03 2021: success! printf \n
