Paz Şub 28 01:00:02 +03 2021: digi environment activated

Paz Şub 28 01:00:02 +03 2021: running main_lxml.py

Paz Şub 28 01:10:11 +03 2021: finished main_lxml.py

Paz Şub 28 01:10:11 +03 2021: running deactivate_all_loans.sql

Paz Şub 28 01:10:11 +03 2021: finished deactivate_all_loans.sql

Paz Şub 28 01:10:11 +03 2021: running transfer_scraped_data.sql

Paz Şub 28 01:12:15 +03 2021: finshed transfer_scraped_data.py

Paz Şub 28 01:12:15 +03 2021: running ensure_empty_summary_and_matrix.sql

Paz Şub 28 01:12:15 +03 2021: finished ensure_empty_summary_and_matrix.sql

Paz Şub 28 01:12:15 +03 2021: running loan_summary.py

Paz Şub 28 01:12:21 +03 2021: finished loan_summary.py

Paz Şub 28 01:12:21 +03 2021: running loan_summary_matrix.py

Paz Şub 28 01:12:30 +03 2021: finished loan_summary_matrix.py

Paz Şub 28 01:12:30 +03 2021: running set_cheapest_loans.sql

Paz Şub 28 01:12:30 +03 2021: finished set_cheapest_loans.sql

Paz Şub 28 01:12:30 +03 2021: restarting apache2 server...

Paz Şub 28 01:12:33 +03 2021: success! printf \n
Paz Şub 28 10:47:44 +03 2021: digi environment activated

Paz Şub 28 10:47:44 +03 2021: running main_lxml.py

Paz Şub 28 10:55:04 +03 2021: finished main_lxml.py

Paz Şub 28 10:55:04 +03 2021: running deactivate_all_loans.sql

Paz Şub 28 10:55:04 +03 2021: finished deactivate_all_loans.sql

Paz Şub 28 10:55:04 +03 2021: running transfer_scraped_data.sql

Paz Şub 28 10:56:48 +03 2021: finshed transfer_scraped_data.py

Paz Şub 28 10:56:48 +03 2021: running ensure_empty_summary_and_matrix.sql

Paz Şub 28 10:56:48 +03 2021: finished ensure_empty_summary_and_matrix.sql

Paz Şub 28 10:56:48 +03 2021: running loan_summary.py

Paz Şub 28 10:56:53 +03 2021: finished loan_summary.py

Paz Şub 28 10:56:53 +03 2021: running loan_summary_matrix.py

Paz Şub 28 11:36:58 +03 2021: digi environment activated

Paz Şub 28 11:36:58 +03 2021: running main_lxml.py

Paz Şub 28 11:44:56 +03 2021: finished main_lxml.py

Paz Şub 28 11:44:56 +03 2021: running deactivate_all_loans.sql

Paz Şub 28 11:44:56 +03 2021: finished deactivate_all_loans.sql

Paz Şub 28 11:44:56 +03 2021: running transfer_scraped_data.sql

Paz Şub 28 11:46:38 +03 2021: finshed transfer_scraped_data.py

Paz Şub 28 11:46:38 +03 2021: running ensure_empty_summary_and_matrix.sql

Paz Şub 28 11:46:38 +03 2021: finished ensure_empty_summary_and_matrix.sql

Paz Şub 28 11:46:38 +03 2021: running loan_summary.py

Paz Şub 28 11:46:44 +03 2021: finished loan_summary.py

Paz Şub 28 11:46:44 +03 2021: running loan_summary_matrix.py

