
C:\Windows\system32>echo Sat 01/16/2021  5:00:00.90: scrape_job.bat started   && set PYTHONIOENCODING=utf-8   && C:\Anaconda3\Scripts\activate   && echo Sat 01/16/2021  5:00:00.90: anaconda activated   && conda activate digi   && echo Sat 01/16/2021  5:00:00.90: digi env activated   && cd C:\hook   && echo Sat 01/16/2021  5:00:00.90: running scripts/scrape/1.0.1/main_lxml.py   && python manage.py shell   0<scripts/scrape/1.0.1/main_lxml.py 1>>scripts/scrape/1.0.1/logs/scrape_job_log_2021_01_16.txt  && echo Sat 01/16/2021  5:00:00.90: running scripts/sql/deactivate_all_loans.sql   && psql postgresql://postgres:1122@localhost:5432/hook   0<scripts/sql/deactivate_all_loans.sql 1>>scripts/sql/logs/deactivate_all_loans_log_2021_01_16.txt  && echo Sat 01/16/2021  5:00:00.90: running scripts/py/jobs/transfer_scraped_data.py   && python manage.py shell   0<scripts/py/jobs/transfer_scraped_data.py 1>>scripts/py/jobs/logs/transfer_scraped_data_log_2021_01_16.txt  && echo Sat 01/16/2021  5:00:00.90: running scripts/sql/ensure_empty_summary_and_matrix.sql   && psql postgresql://postgres:1122@localhost:5432/hook   0<scripts/sql/ensure_empty_summary_and_matrix.sql 1>>scripts/sql/logs/ensure_empty_summary_and_matrix_log_2021_01_16.txt  && echo Sat 01/16/2021  5:00:00.90: running scripts/py/jobs/exec_loan_summary.py   && python manage.py shell   0<scripts/py/jobs/exec_loan_summary.py 1>>scripts/py/jobs/logs/loan_summary_log_2021_01_16.txt  && echo Sat 01/16/2021  5:00:00.90: running scripts/py/jobs/exec_loan_summary_matrix.py   && python manage.py shell   0<scripts/py/jobs/exec_loan_summary_matrix.py 1>>scripts/py/jobs/logs/loan_summary_matrix_log_2021_01_16.txt  && echo Sat 01/16/2021  5:00:00.90: running scripts/sql/set_cheapest_loans.sql   && psql postgresql://postgres:1122@localhost:5432/hook   0<scripts/sql/set_cheapest_loans.sql 1>>scripts/sql/logs/set_cheapest_loans_log_2021_01_16.txt  && echo Sat 01/16/2021  5:00:00.90: restarting apache server   && C:\wamp64\bin\apache\apache2.4.46\bin\httpd -k restart 
Sat 01/16/2021  5:00:00.90: scrape_job.bat started 
Sat 01/16/2021  5:00:00.90: anaconda activated 
Sat 01/16/2021  5:00:00.90: digi env activated 
Sat 01/16/2021  5:00:00.90: running scripts/scrape/1.0.1/main_lxml.py 
Sat 01/16/2021  5:00:00.90: running scripts/sql/deactivate_all_loans.sql 
Sat 01/16/2021  5:00:00.90: running scripts/py/jobs/transfer_scraped_data.py 
Sat 01/16/2021  5:00:00.90: running scripts/sql/ensure_empty_summary_and_matrix.sql 
Sat 01/16/2021  5:00:00.90: running scripts/py/jobs/exec_loan_summary.py 
Sat 01/16/2021  5:00:00.90: running scripts/py/jobs/exec_loan_summary_matrix.py 
Sat 01/16/2021  5:00:00.90: running scripts/sql/set_cheapest_loans.sql 
Sat 01/16/2021  5:00:00.90: restarting apache server 
