Sal Şub 23 01:00:02 +03 2021: digi environment activated

Sal Şub 23 01:00:02 +03 2021: running main_lxml.py

Sal Şub 23 01:11:59 +03 2021: finished main_lxml.py

Sal Şub 23 01:11:59 +03 2021: running deactivate_all_loans.sql

Sal Şub 23 01:11:59 +03 2021: finished deactivate_all_loans.sql

Sal Şub 23 01:11:59 +03 2021: running transfer_scraped_data.sql

Sal Şub 23 01:13:53 +03 2021: finshed transfer_scraped_data.py

Sal Şub 23 01:13:53 +03 2021: running ensure_empty_summary_and_matrix.sql

Sal Şub 23 01:13:53 +03 2021: finished ensure_empty_summary_and_matrix.sql

Sal Şub 23 01:13:53 +03 2021: running loan_summary.py

Sal Şub 23 01:13:59 +03 2021: finished loan_summary.py

Sal Şub 23 01:13:59 +03 2021: running loan_summary_matrix.py

Sal Şub 23 01:14:08 +03 2021: finished loan_summary_matrix.py

Sal Şub 23 01:14:08 +03 2021: running set_cheapest_loans.sql

Sal Şub 23 01:14:08 +03 2021: finished set_cheapest_loans.sql

Sal Şub 23 01:14:08 +03 2021: restarting apache2 server...

Sal Şub 23 01:14:11 +03 2021: success! printf \n
