
C:\Windows\system32>echo Tue 12/08/2020  5:00:00.49: scrape_job.bat started   && set PYTHONIOENCODING=utf-8   && C:\Anaconda3\Scripts\activate   && echo Tue 12/08/2020  5:00:00.49: anaconda activated   && conda activate digi   && echo Tue 12/08/2020  5:00:00.49: digi env activated   && cd C:\hook   && echo Tue 12/08/2020  5:00:00.49: running scripts/scrape/1.0.1/main_lxml.py   && python manage.py shell   0<scripts/scrape/1.0.1/main_lxml.py 1>>scripts/scrape/1.0.1/logs/scrape_job_log_2020_12_08.txt  && echo Tue 12/08/2020  5:00:00.49: running scripts/sql/deactivate_all_loans.sql   && psql postgresql://postgres:1122@localhost:5432/hook   0<scripts/sql/deactivate_all_loans.sql 1>>scripts/sql/logs/deactivate_all_loans_log_2020_12_08.txt  && echo Tue 12/08/2020  5:00:00.49: running scripts/py/jobs/transfer_scraped_data.py   && python manage.py shell   0<scripts/py/jobs/transfer_scraped_data.py 1>>scripts/py/jobs/logs/transfer_scraped_data_log_2020_12_08.txt  && echo Tue 12/08/2020  5:00:00.49: running scripts/sql/ensure_empty_summary_and_matrix.sql   && psql postgresql://postgres:1122@localhost:5432/hook   0<scripts/sql/ensure_empty_summary_and_matrix.sql 1>>scripts/sql/logs/ensure_empty_summary_and_matrix_log_2020_12_08.txt  && echo Tue 12/08/2020  5:00:00.49: running scripts/py/jobs/exec_loan_summary.py   && python manage.py shell   0<scripts/py/jobs/exec_loan_summary.py 1>>scripts/py/jobs/logs/loan_summary_log_2020_12_08.txt  && echo Tue 12/08/2020  5:00:00.50: running scripts/py/jobs/exec_loan_summary_matrix.py   && python manage.py shell   0<scripts/py/jobs/exec_loan_summary_matrix.py 1>>scripts/py/jobs/logs/loan_summary_matrix_log_2020_12_08.txt  && echo Tue 12/08/2020  5:00:00.50: running scripts/sql/set_cheapest_loans.sql   && psql postgresql://postgres:1122@localhost:5432/hook   0<scripts/sql/set_cheapest_loans.sql 1>>scripts/sql/logs/set_cheapest_loans_log_2020_12_08.txt  && echo Tue 12/08/2020  5:00:00.50: restarting apache server   && C:\wamp64\bin\apache\apache2.4.46\bin\httpd -k restart 
Tue 12/08/2020  5:00:00.49: scrape_job.bat started 
Tue 12/08/2020  5:00:00.49: anaconda activated 
Tue 12/08/2020  5:00:00.49: digi env activated 
Tue 12/08/2020  5:00:00.49: running scripts/scrape/1.0.1/main_lxml.py 
Tue 12/08/2020  5:00:00.49: running scripts/sql/deactivate_all_loans.sql 
Tue 12/08/2020  5:00:00.49: running scripts/py/jobs/transfer_scraped_data.py 
Tue 12/08/2020  5:00:00.49: running scripts/sql/ensure_empty_summary_and_matrix.sql 
Tue 12/08/2020  5:00:00.49: running scripts/py/jobs/exec_loan_summary.py 
Tue 12/08/2020  5:00:00.50: running scripts/py/jobs/exec_loan_summary_matrix.py 
Tue 12/08/2020  5:00:00.50: running scripts/sql/set_cheapest_loans.sql 
Tue 12/08/2020  5:00:00.50: restarting apache server 
