Cts Mar 6 01:00:02 +03 2021: digi environment activated

Cts Mar 6 01:00:02 +03 2021: running main_lxml.py

Cts Mar 6 01:10:35 +03 2021: finished main_lxml.py

Cts Mar 6 01:10:35 +03 2021: running deactivate_all_loans.sql

Cts Mar 6 01:10:36 +03 2021: finished deactivate_all_loans.sql

Cts Mar 6 01:10:36 +03 2021: running transfer_scraped_data.sql

Cts Mar 6 01:12:02 +03 2021: finshed transfer_scraped_data.py

Cts Mar 6 01:12:02 +03 2021: running ensure_empty_summary_and_matrix.sql

Cts Mar 6 01:12:02 +03 2021: finished ensure_empty_summary_and_matrix.sql

Cts Mar 6 01:12:02 +03 2021: running loan_summary.py

Cts Mar 6 01:12:08 +03 2021: finished loan_summary.py

Cts Mar 6 01:12:08 +03 2021: running loan_summary_matrix.py

Cts Mar 6 01:12:17 +03 2021: finished loan_summary_matrix.py

Cts Mar 6 01:12:17 +03 2021: running set_cheapest_loans.sql

Cts Mar 6 01:12:17 +03 2021: finished set_cheapest_loans.sql

Cts Mar 6 01:12:17 +03 2021: restarting apache2 server...

Cts Mar 6 01:12:20 +03 2021: success! printf \n
