Cum Mar 12 01:00:02 +03 2021: digi environment activated

Cum Mar 12 01:00:02 +03 2021: running main_lxml.py

Cum Mar 12 01:08:12 +03 2021: finished main_lxml.py

Cum Mar 12 01:08:12 +03 2021: running deactivate_all_loans.sql

Cum Mar 12 01:08:13 +03 2021: finished deactivate_all_loans.sql

Cum Mar 12 01:08:13 +03 2021: running transfer_scraped_data.sql

Cum Mar 12 01:09:52 +03 2021: finshed transfer_scraped_data.py

Cum Mar 12 01:09:52 +03 2021: running ensure_empty_summary_and_matrix.sql

Cum Mar 12 01:09:52 +03 2021: finished ensure_empty_summary_and_matrix.sql

Cum Mar 12 01:09:52 +03 2021: running loan_summary.py

Cum Mar 12 01:09:58 +03 2021: finished loan_summary.py

Cum Mar 12 01:09:58 +03 2021: running loan_summary_matrix.py

Cum Mar 12 01:10:09 +03 2021: finished loan_summary_matrix.py

Cum Mar 12 01:10:09 +03 2021: running set_cheapest_loans.sql

Cum Mar 12 01:10:09 +03 2021: finished set_cheapest_loans.sql

Cum Mar 12 01:10:09 +03 2021: restarting apache2 server...

Cum Mar 12 01:10:12 +03 2021: success! printf \n
