Sal Mar 23 01:00:02 +03 2021: digi environment activated

Sal Mar 23 01:00:02 +03 2021: running main_lxml.py

Sal Mar 23 01:10:41 +03 2021: finished main_lxml.py

Sal Mar 23 01:10:41 +03 2021: running deactivate_all_loans.sql

Sal Mar 23 01:10:41 +03 2021: finished deactivate_all_loans.sql

Sal Mar 23 01:10:41 +03 2021: running transfer_scraped_data.py

Sal Mar 23 01:12:20 +03 2021: finshed transfer_scraped_data.py

Sal Mar 23 01:12:20 +03 2021: running fill_missing_criticals.py

Sal Mar 23 01:14:20 +03 2021: finshed fill_missing_criticals.py

Sal Mar 23 01:14:20 +03 2021: running ensure_empty_summary_and_matrix.sql

Sal Mar 23 01:14:20 +03 2021: finished ensure_empty_summary_and_matrix.sql

Sal Mar 23 01:14:20 +03 2021: running loan_summary.py

Sal Mar 23 01:14:26 +03 2021: finished loan_summary.py

Sal Mar 23 01:14:26 +03 2021: running loan_summary_matrix.py

Sal Mar 23 01:14:36 +03 2021: finished loan_summary_matrix.py

Sal Mar 23 01:14:36 +03 2021: running interest_change_buckets.py

Sal Mar 23 01:15:31 +03 2021: finished interest_change_buckets.py

Sal Mar 23 01:15:31 +03 2021: restarting apache2 server...

Sal Mar 23 01:15:34 +03 2021: success! printf \n
