Prş Nis 1 01:00:02 +03 2021: digi environment activated

Prş Nis 1 01:00:02 +03 2021: running main_lxml.py

Prş Nis 1 01:12:34 +03 2021: finished main_lxml.py

Prş Nis 1 01:12:34 +03 2021: running deactivate_all_loans.sql

Prş Nis 1 01:12:35 +03 2021: finished deactivate_all_loans.sql

Prş Nis 1 01:12:35 +03 2021: running transfer_scraped_data.py

Prş Nis 1 01:14:14 +03 2021: finshed transfer_scraped_data.py

Prş Nis 1 01:14:14 +03 2021: running fill_missing_criticals.py

Prş Nis 1 01:16:32 +03 2021: finshed fill_missing_criticals.py

Prş Nis 1 01:16:32 +03 2021: running ensure_empty_summary_and_matrix.sql

Prş Nis 1 01:16:32 +03 2021: finished ensure_empty_summary_and_matrix.sql

Prş Nis 1 01:16:32 +03 2021: running loan_summary.py

Prş Nis 1 01:16:38 +03 2021: finished loan_summary.py

Prş Nis 1 01:16:38 +03 2021: running loan_summary_matrix.py

Prş Nis 1 01:16:48 +03 2021: finished loan_summary_matrix.py

Prş Nis 1 01:16:48 +03 2021: running interest_change_buckets.py

Prş Nis 1 01:17:42 +03 2021: finished interest_change_buckets.py

Prş Nis 1 01:17:42 +03 2021: restarting apache2 server...

Prş Nis 1 01:17:45 +03 2021: success! printf \n
