Pzt Nis 5 01:00:02 +03 2021: digi environment activated

Pzt Nis 5 01:00:02 +03 2021: running main_lxml.py

Pzt Nis 5 01:09:13 +03 2021: finished main_lxml.py

Pzt Nis 5 01:09:13 +03 2021: running deactivate_all_loans.sql

Pzt Nis 5 01:09:14 +03 2021: finished deactivate_all_loans.sql

Pzt Nis 5 01:09:14 +03 2021: running transfer_scraped_data.py

Pzt Nis 5 01:10:41 +03 2021: finshed transfer_scraped_data.py

Pzt Nis 5 01:10:41 +03 2021: running fill_missing_criticals.py

Pzt Nis 5 01:12:53 +03 2021: finshed fill_missing_criticals.py

Pzt Nis 5 01:12:53 +03 2021: running ensure_empty_summary_and_matrix.sql

Pzt Nis 5 01:12:53 +03 2021: finished ensure_empty_summary_and_matrix.sql

Pzt Nis 5 01:12:53 +03 2021: running loan_summary.py

Pzt Nis 5 01:12:58 +03 2021: finished loan_summary.py

Pzt Nis 5 01:12:58 +03 2021: running loan_summary_matrix.py

Pzt Nis 5 01:13:08 +03 2021: finished loan_summary_matrix.py

Pzt Nis 5 01:13:08 +03 2021: running interest_change_buckets.py

Pzt Nis 5 01:14:04 +03 2021: finished interest_change_buckets.py

Pzt Nis 5 01:14:04 +03 2021: restarting apache2 server...

Pzt Nis 5 01:14:06 +03 2021: success! printf \n
