BASE_DIR: /hook
20/02/2021, 01:14:06: loan_summary.py started
===================================
working on: CA2
saved for bank: İş Bankası
saved for bank: Akbank
no loan found for bank: Denizbank
saved for bank: QNB Finansbank
saved for bank: Vakıf Katılım
no loan found for bank: Enpara
saved for bank: Vakıfbank
saved for bank: Ziraat Bankası
saved for bank: Kuveyt Türk
saved for bank: ING
saved for bank: ICBC
saved for bank: TEB
saved for bank: Yapı Kredi
saved for bank: Garanti BBVA
saved for bank: Halkbank
saved for bank: Anadolubank
saved for bank: Burgan Bank
saved for bank: Şekerbank
saved for bank: Alternatif Bank
no loan found for bank: Odeabank
saved for bank: HSBC
saved for bank: Fibabanka
working on: CAR
saved for bank: İş Bankası
saved for bank: Akbank
saved for bank: Denizbank
no loan found for bank: QNB Finansbank
no loan found for bank: Vakıf Katılım
no loan found for bank: Enpara
no loan found for bank: Vakıfbank
no loan found for bank: Ziraat Bankası
no loan found for bank: Kuveyt Türk
no loan found for bank: ING
no loan found for bank: ICBC
no loan found for bank: TEB
no loan found for bank: Yapı Kredi
saved for bank: Garanti BBVA
no loan found for bank: Halkbank
no loan found for bank: Anadolubank
saved for bank: Burgan Bank
no loan found for bank: Şekerbank
saved for bank: Alternatif Bank
saved for bank: Odeabank
no loan found for bank: HSBC
saved for bank: Fibabanka
working on: MOR
saved for bank: İş Bankası
saved for bank: Akbank
saved for bank: Denizbank
saved for bank: QNB Finansbank
saved for bank: Vakıf Katılım
no loan found for bank: Enpara
saved for bank: Vakıfbank
saved for bank: Ziraat Bankası
saved for bank: Kuveyt Türk
saved for bank: ING
saved for bank: ICBC
saved for bank: TEB
saved for bank: Yapı Kredi
saved for bank: Garanti BBVA
saved for bank: Halkbank
saved for bank: Anadolubank
saved for bank: Burgan Bank
saved for bank: Şekerbank
saved for bank: Alternatif Bank
saved for bank: Odeabank
saved for bank: HSBC
saved for bank: Fibabanka
working on: GPL
saved for bank: İş Bankası
saved for bank: Akbank
saved for bank: Denizbank
saved for bank: QNB Finansbank
no loan found for bank: Vakıf Katılım
saved for bank: Enpara
saved for bank: Vakıfbank
saved for bank: Ziraat Bankası
saved for bank: Kuveyt Türk
saved for bank: ING
no loan found for bank: ICBC
saved for bank: TEB
saved for bank: Yapı Kredi
saved for bank: Garanti BBVA
saved for bank: Halkbank
no loan found for bank: Anadolubank
no loan found for bank: Burgan Bank
no loan found for bank: Şekerbank
no loan found for bank: Alternatif Bank
no loan found for bank: Odeabank
no loan found for bank: HSBC
no loan found for bank: Fibabanka
===================================
20/02/2021, 01:14:11: loan_summary.py ended
