BASE_DIR: C:\hook
>>> 01/02/2021, 15:53:59: loan_summary.py started
===================================
>>> BASE_DIR: C:\hook
>>> 01/02/2021, 16:44:09: loan_summary.py started
===================================
working on: CA2
saved for bank: ING
saved for bank: Garanti BBVA
saved for bank: Yapı Kredi
saved for bank: Akbank
saved for bank: Denizbank
saved for bank: QNB Finansbank
saved for bank: Vakıfbank
saved for bank: TEB
saved for bank: Halkbank
saved for bank: İş Bankası
saved for bank: Ziraat Bankası
saved for bank: Alternatif Bank
saved for bank: Anadolubank
saved for bank: Şekerbank
saved for bank: Odeabank
saved for bank: Fibabanka
saved for bank: Burgan Bank
saved for bank: HSBC
saved for bank: ICBC
saved for bank: Kuveyt Türk
saved for bank: Vakıf Katılım
saved for bank: Ziraat Katılım
saved for bank: TurkishBank
no loan found for bank: Enpara
working on: MOR
saved for bank: ING
saved for bank: Garanti BBVA
saved for bank: Yapı Kredi
saved for bank: Akbank
saved for bank: Denizbank
saved for bank: QNB Finansbank
saved for bank: Vakıfbank
saved for bank: TEB
saved for bank: Halkbank
saved for bank: İş Bankası
saved for bank: Ziraat Bankası
saved for bank: Alternatif Bank
saved for bank: Anadolubank
saved for bank: Şekerbank
saved for bank: Odeabank
saved for bank: Fibabanka
saved for bank: Burgan Bank
saved for bank: HSBC
saved for bank: ICBC
saved for bank: Kuveyt Türk
saved for bank: Vakıf Katılım
saved for bank: Ziraat Katılım
no loan found for bank: TurkishBank
no loan found for bank: Enpara
working on: CAR
no loan found for bank: ING
saved for bank: Garanti BBVA
saved for bank: Yapı Kredi
saved for bank: Akbank
saved for bank: Denizbank
saved for bank: QNB Finansbank
saved for bank: Vakıfbank
no loan found for bank: TEB
saved for bank: Halkbank
saved for bank: İş Bankası
saved for bank: Ziraat Bankası
saved for bank: Alternatif Bank
no loan found for bank: Anadolubank
no loan found for bank: Şekerbank
saved for bank: Odeabank
saved for bank: Fibabanka
saved for bank: Burgan Bank
no loan found for bank: HSBC
no loan found for bank: ICBC
no loan found for bank: Kuveyt Türk
no loan found for bank: Vakıf Katılım
saved for bank: Ziraat Katılım
saved for bank: TurkishBank
no loan found for bank: Enpara
working on: GPL
saved for bank: ING
saved for bank: Garanti BBVA
saved for bank: Yapı Kredi
saved for bank: Akbank
saved for bank: Denizbank
saved for bank: QNB Finansbank
saved for bank: Vakıfbank
saved for bank: TEB
saved for bank: Halkbank
saved for bank: İş Bankası
saved for bank: Ziraat Bankası
no loan found for bank: Alternatif Bank
no loan found for bank: Anadolubank
saved for bank: Şekerbank
saved for bank: Odeabank
no loan found for bank: Fibabanka
no loan found for bank: Burgan Bank
no loan found for bank: HSBC
no loan found for bank: ICBC
saved for bank: Kuveyt Türk
no loan found for bank: Vakıf Katılım
saved for bank: Ziraat Katılım
no loan found for bank: TurkishBank
saved for bank: Enpara
===================================
01/02/2021, 16:44:42: loan_summary.py ended
>>> BASE_DIR: C:\hook
Python 3.7.9 (default, Aug 31 2020, 17:10:11) [MSC v.1916 64 bit (AMD64)]
Type 'copyright', 'credits' or 'license' for more information
IPython 7.18.1 -- An enhanced Interactive Python. Type '?' for help.

In [1]: 01/02/2021, 17:21:22: loan_summary.py started
===================================
working on: CA2
saved for bank: ING
saved for bank: Garanti BBVA
saved for bank: Yapı Kredi
saved for bank: Akbank
saved for bank: Denizbank
saved for bank: QNB Finansbank
saved for bank: Vakıfbank
saved for bank: TEB
saved for bank: Halkbank
saved for bank: İş Bankası
saved for bank: Ziraat Bankası
saved for bank: Alternatif Bank
saved for bank: Anadolubank
saved for bank: Şekerbank
saved for bank: Odeabank
saved for bank: Fibabanka
saved for bank: Burgan Bank
saved for bank: HSBC
saved for bank: ICBC
saved for bank: Kuveyt Türk
saved for bank: Vakıf Katılım
saved for bank: Ziraat Katılım
saved for bank: TurkishBank
no loan found for bank: Enpara
working on: MOR
saved for bank: ING
saved for bank: Garanti BBVA
saved for bank: Yapı Kredi
saved for bank: Akbank
saved for bank: Denizbank
saved for bank: QNB Finansbank
saved for bank: Vakıfbank
saved for bank: TEB
saved for bank: Halkbank
saved for bank: İş Bankası
saved for bank: Ziraat Bankası
saved for bank: Alternatif Bank
saved for bank: Anadolubank
saved for bank: Şekerbank
saved for bank: Odeabank
saved for bank: Fibabanka
saved for bank: Burgan Bank
saved for bank: HSBC
saved for bank: ICBC
saved for bank: Kuveyt Türk
saved for bank: Vakıf Katılım
saved for bank: Ziraat Katılım
no loan found for bank: TurkishBank
no loan found for bank: Enpara
working on: CAR
no loan found for bank: ING
saved for bank: Garanti BBVA
saved for bank: Yapı Kredi
saved for bank: Akbank
saved for bank: Denizbank
saved for bank: QNB Finansbank
saved for bank: Vakıfbank
no loan found for bank: TEB
saved for bank: Halkbank
saved for bank: İş Bankası
saved for bank: Ziraat Bankası
saved for bank: Alternatif Bank
no loan found for bank: Anadolubank
no loan found for bank: Şekerbank
saved for bank: Odeabank
saved for bank: Fibabanka
saved for bank: Burgan Bank
no loan found for bank: HSBC
no loan found for bank: ICBC
no loan found for bank: Kuveyt Türk
no loan found for bank: Vakıf Katılım
saved for bank: Ziraat Katılım
saved for bank: TurkishBank
no loan found for bank: Enpara
working on: GPL
saved for bank: ING
saved for bank: Garanti BBVA
saved for bank: Yapı Kredi
saved for bank: Akbank
saved for bank: Denizbank
saved for bank: QNB Finansbank
saved for bank: Vakıfbank
saved for bank: TEB
saved for bank: Halkbank
saved for bank: İş Bankası
saved for bank: Ziraat Bankası
no loan found for bank: Alternatif Bank
no loan found for bank: Anadolubank
saved for bank: Şekerbank
saved for bank: Odeabank
no loan found for bank: Fibabanka
no loan found for bank: Burgan Bank
no loan found for bank: HSBC
no loan found for bank: ICBC
saved for bank: Kuveyt Türk
no loan found for bank: Vakıf Katılım
saved for bank: Ziraat Katılım
no loan found for bank: TurkishBank
saved for bank: Enpara
===================================
01/02/2021, 17:21:43: loan_summary.py ended

In [2]: Do you really want to exit ([y]/n)? 
