BASE_DIR: C:\hook
Python 3.7.9 (default, Aug 31 2020, 17:10:11) [MSC v.1916 64 bit (AMD64)]
Type 'copyright', 'credits' or 'license' for more information
IPython 7.19.0 -- An enhanced Interactive Python. Type '?' for help.

In [1]: 15/12/2020, 05:20:21: loan_summary.py started
===================================
working on: CAR
saved for bank: Vakıfbank
saved for bank: İş Bankası
no loan found for bank: Anadolubank
no loan found for bank: ICBC
saved for bank: ING
saved for bank: Garanti BBVA
saved for bank: QNB Finansbank
no loan found for bank: Kuveyt Türk
saved for bank: Denizbank
no loan found for bank: TEB
saved for bank: Yapı Kredi
no loan found for bank: Vakıf Katılım
saved for bank: Ziraat Katılım
saved for bank: Halkbank
saved for bank: Akbank
no loan found for bank: Odeabank
no loan found for bank: Fibabanka
saved for bank: Alternatif Bank
no loan found for bank: Şekerbank
no loan found for bank: Ziraat Bankası
no loan found for bank: HSBC
no loan found for bank: Enpara
saved for bank: Burgan Bank
saved for bank: TurkishBank
working on: CA2
saved for bank: Vakıfbank
saved for bank: İş Bankası
saved for bank: Anadolubank
saved for bank: ICBC
saved for bank: ING
saved for bank: Garanti BBVA
saved for bank: QNB Finansbank
saved for bank: Kuveyt Türk
saved for bank: Denizbank
saved for bank: TEB
saved for bank: Yapı Kredi
saved for bank: Vakıf Katılım
saved for bank: Ziraat Katılım
saved for bank: Halkbank
saved for bank: Akbank
saved for bank: Odeabank
saved for bank: Fibabanka
saved for bank: Alternatif Bank
saved for bank: Şekerbank
saved for bank: Ziraat Bankası
saved for bank: HSBC
no loan found for bank: Enpara
saved for bank: Burgan Bank
saved for bank: TurkishBank
working on: MOR
saved for bank: Vakıfbank
saved for bank: İş Bankası
saved for bank: Anadolubank
saved for bank: ICBC
saved for bank: ING
saved for bank: Garanti BBVA
saved for bank: QNB Finansbank
saved for bank: Kuveyt Türk
saved for bank: Denizbank
saved for bank: TEB
saved for bank: Yapı Kredi
saved for bank: Vakıf Katılım
saved for bank: Ziraat Katılım
saved for bank: Halkbank
saved for bank: Akbank
saved for bank: Odeabank
saved for bank: Fibabanka
saved for bank: Alternatif Bank
saved for bank: Şekerbank
saved for bank: Ziraat Bankası
saved for bank: HSBC
no loan found for bank: Enpara
saved for bank: Burgan Bank
no loan found for bank: TurkishBank
working on: GPL
saved for bank: Vakıfbank
saved for bank: İş Bankası
no loan found for bank: Anadolubank
no loan found for bank: ICBC
saved for bank: ING
saved for bank: Garanti BBVA
saved for bank: QNB Finansbank
saved for bank: Kuveyt Türk
saved for bank: Denizbank
saved for bank: TEB
no loan found for bank: Yapı Kredi
no loan found for bank: Vakıf Katılım
saved for bank: Ziraat Katılım
saved for bank: Halkbank
saved for bank: Akbank
saved for bank: Odeabank
no loan found for bank: Fibabanka
no loan found for bank: Alternatif Bank
saved for bank: Şekerbank
saved for bank: Ziraat Bankası
no loan found for bank: HSBC
saved for bank: Enpara
no loan found for bank: Burgan Bank
no loan found for bank: TurkishBank
===================================
15/12/2020, 05:20:53: loan_summary.py ended

In [2]: Do you really want to exit ([y]/n)? 
