BASE_DIR: /hook
16/02/2021, 01:12:01: loan_summary.py started
===================================
working on: CA2
saved for bank: Akbank
saved for bank: İş Bankası
saved for bank: Şekerbank
saved for bank: Alternatif Bank
saved for bank: Vakıfbank
saved for bank: Ziraat Bankası
saved for bank: Kuveyt Türk
saved for bank: Yapı Kredi
saved for bank: ICBC
no loan found for bank: Ziraat Katılım
saved for bank: Garanti BBVA
saved for bank: ING
saved for bank: HSBC
saved for bank: TEB
saved for bank: Halkbank
saved for bank: Fibabanka
no loan found for bank: Odeabank
saved for bank: Vakıf Katılım
no loan found for bank: Denizbank
saved for bank: Anadolubank
saved for bank: Burgan Bank
no loan found for bank: TurkishBank
saved for bank: QNB Finansbank
working on: CAR
saved for bank: Akbank
saved for bank: İş Bankası
no loan found for bank: Şekerbank
saved for bank: Alternatif Bank
no loan found for bank: Vakıfbank
saved for bank: Ziraat Bankası
no loan found for bank: Kuveyt Türk
saved for bank: Yapı Kredi
no loan found for bank: ICBC
saved for bank: Ziraat Katılım
saved for bank: Garanti BBVA
no loan found for bank: ING
no loan found for bank: HSBC
no loan found for bank: TEB
saved for bank: Halkbank
saved for bank: Fibabanka
saved for bank: Odeabank
no loan found for bank: Vakıf Katılım
saved for bank: Denizbank
no loan found for bank: Anadolubank
saved for bank: Burgan Bank
saved for bank: TurkishBank
no loan found for bank: QNB Finansbank
working on: MOR
saved for bank: Akbank
saved for bank: İş Bankası
saved for bank: Şekerbank
saved for bank: Alternatif Bank
saved for bank: Vakıfbank
saved for bank: Ziraat Bankası
saved for bank: Kuveyt Türk
saved for bank: Yapı Kredi
saved for bank: ICBC
saved for bank: Ziraat Katılım
saved for bank: Garanti BBVA
saved for bank: ING
saved for bank: HSBC
saved for bank: TEB
saved for bank: Halkbank
saved for bank: Fibabanka
saved for bank: Odeabank
saved for bank: Vakıf Katılım
saved for bank: Denizbank
saved for bank: Anadolubank
saved for bank: Burgan Bank
no loan found for bank: TurkishBank
saved for bank: QNB Finansbank
working on: GPL
saved for bank: Akbank
no loan found for bank: İş Bankası
saved for bank: Şekerbank
no loan found for bank: Alternatif Bank
saved for bank: Vakıfbank
saved for bank: Ziraat Bankası
no loan found for bank: Kuveyt Türk
no loan found for bank: Yapı Kredi
no loan found for bank: ICBC
saved for bank: Ziraat Katılım
no loan found for bank: Garanti BBVA
no loan found for bank: ING
no loan found for bank: HSBC
no loan found for bank: TEB
saved for bank: Halkbank
no loan found for bank: Fibabanka
saved for bank: Odeabank
no loan found for bank: Vakıf Katılım
no loan found for bank: Denizbank
no loan found for bank: Anadolubank
no loan found for bank: Burgan Bank
no loan found for bank: TurkishBank
no loan found for bank: QNB Finansbank
===================================
16/02/2021, 01:12:05: loan_summary.py ended
