BASE_DIR: /hook
04/03/2021, 01:10:30: loan_summary.py started
===================================
working on: CA2
saved for bank: Garanti BBVA
saved for bank: Vakıfbank
saved for bank: Ziraat Bankası
saved for bank: İş Bankası
saved for bank: Ziraat Katılım
saved for bank: Alternatif Bank
saved for bank: Yapı Kredi
saved for bank: Akbank
saved for bank: TEB
saved for bank: ING
saved for bank: Denizbank
saved for bank: QNB Finansbank
no loan found for bank: Enpara
saved for bank: Şekerbank
saved for bank: Fibabanka
saved for bank: Vakıf Katılım
saved for bank: HSBC
saved for bank: ICBC
saved for bank: Halkbank
saved for bank: TurkishBank
saved for bank: Odeabank
saved for bank: Burgan Bank
saved for bank: Kuveyt Türk
saved for bank: Anadolubank
working on: MOR
saved for bank: Garanti BBVA
saved for bank: Vakıfbank
saved for bank: Ziraat Bankası
saved for bank: İş Bankası
saved for bank: Ziraat Katılım
saved for bank: Alternatif Bank
saved for bank: Yapı Kredi
saved for bank: Akbank
saved for bank: TEB
saved for bank: ING
saved for bank: Denizbank
saved for bank: QNB Finansbank
no loan found for bank: Enpara
saved for bank: Şekerbank
saved for bank: Fibabanka
saved for bank: Vakıf Katılım
saved for bank: HSBC
saved for bank: ICBC
saved for bank: Halkbank
no loan found for bank: TurkishBank
saved for bank: Odeabank
saved for bank: Burgan Bank
saved for bank: Kuveyt Türk
saved for bank: Anadolubank
working on: GPL
saved for bank: Garanti BBVA
saved for bank: Vakıfbank
saved for bank: Ziraat Bankası
saved for bank: İş Bankası
saved for bank: Ziraat Katılım
no loan found for bank: Alternatif Bank
saved for bank: Yapı Kredi
saved for bank: Akbank
saved for bank: TEB
saved for bank: ING
saved for bank: Denizbank
saved for bank: QNB Finansbank
saved for bank: Enpara
saved for bank: Şekerbank
no loan found for bank: Fibabanka
no loan found for bank: Vakıf Katılım
saved for bank: HSBC
no loan found for bank: ICBC
saved for bank: Halkbank
no loan found for bank: TurkishBank
saved for bank: Odeabank
no loan found for bank: Burgan Bank
saved for bank: Kuveyt Türk
no loan found for bank: Anadolubank
working on: CAR
saved for bank: Garanti BBVA
saved for bank: Vakıfbank
saved for bank: Ziraat Bankası
saved for bank: İş Bankası
saved for bank: Ziraat Katılım
saved for bank: Alternatif Bank
saved for bank: Yapı Kredi
saved for bank: Akbank
no loan found for bank: TEB
no loan found for bank: ING
saved for bank: Denizbank
saved for bank: QNB Finansbank
no loan found for bank: Enpara
no loan found for bank: Şekerbank
saved for bank: Fibabanka
saved for bank: Vakıf Katılım
no loan found for bank: HSBC
no loan found for bank: ICBC
saved for bank: Halkbank
saved for bank: TurkishBank
saved for bank: Odeabank
saved for bank: Burgan Bank
no loan found for bank: Kuveyt Türk
no loan found for bank: Anadolubank
===================================
04/03/2021, 01:10:35: loan_summary.py ended
