BASE_DIR: C:\hook
Python 3.7.9 (default, Aug 31 2020, 17:10:11) [MSC v.1916 64 bit (AMD64)]
Type 'copyright', 'credits' or 'license' for more information
IPython 7.19.0 -- An enhanced Interactive Python. Type '?' for help.

In [1]: 10/01/2021, 05:24:09: loan_summary_matrix.py started
===================================
saved for loan_type: Taşıt Kredisi 2. El - tenure: 6 - principal: 20000
saved for loan_type: Taşıt Kredisi 2. El - tenure: 6 - principal: 30000
saved for loan_type: Taşıt Kredisi 2. El - tenure: 6 - principal: 40000
saved for loan_type: Taşıt Kredisi 2. El - tenure: 6 - principal: 50000
saved for loan_type: Taşıt Kredisi 2. El - tenure: 6 - principal: 60000
saved for loan_type: Taşıt Kredisi 2. El - tenure: 6 - principal: 70000
saved for loan_type: Taşıt Kredisi 2. El - tenure: 6 - principal: 80000
saved for loan_type: Taşıt Kredisi 2. El - tenure: 6 - principal: 90000
saved for loan_type: Taşıt Kredisi 2. El - tenure: 6 - principal: 100000
saved for loan_type: Taşıt Kredisi 2. El - tenure: 6 - principal: 150000
saved for loan_type: Taşıt Kredisi 2. El - tenure: 12 - principal: 20000
saved for loan_type: Taşıt Kredisi 2. El - tenure: 12 - principal: 30000
saved for loan_type: Taşıt Kredisi 2. El - tenure: 12 - principal: 40000
saved for loan_type: Taşıt Kredisi 2. El - tenure: 12 - principal: 50000
saved for loan_type: Taşıt Kredisi 2. El - tenure: 12 - principal: 60000
saved for loan_type: Taşıt Kredisi 2. El - tenure: 12 - principal: 70000
saved for loan_type: Taşıt Kredisi 2. El - tenure: 12 - principal: 80000
saved for loan_type: Taşıt Kredisi 2. El - tenure: 12 - principal: 90000
saved for loan_type: Taşıt Kredisi 2. El - tenure: 12 - principal: 100000
saved for loan_type: Taşıt Kredisi 2. El - tenure: 12 - principal: 150000
saved for loan_type: Taşıt Kredisi 2. El - tenure: 18 - principal: 20000
saved for loan_type: Taşıt Kredisi 2. El - tenure: 18 - principal: 30000
saved for loan_type: Taşıt Kredisi 2. El - tenure: 18 - principal: 40000
saved for loan_type: Taşıt Kredisi 2. El - tenure: 18 - principal: 50000
saved for loan_type: Taşıt Kredisi 2. El - tenure: 18 - principal: 60000
saved for loan_type: Taşıt Kredisi 2. El - tenure: 18 - principal: 70000
saved for loan_type: Taşıt Kredisi 2. El - tenure: 18 - principal: 80000
saved for loan_type: Taşıt Kredisi 2. El - tenure: 18 - principal: 90000
saved for loan_type: Taşıt Kredisi 2. El - tenure: 18 - principal: 100000
saved for loan_type: Taşıt Kredisi 2. El - tenure: 18 - principal: 150000
saved for loan_type: Taşıt Kredisi 2. El - tenure: 24 - principal: 20000
saved for loan_type: Taşıt Kredisi 2. El - tenure: 24 - principal: 30000
saved for loan_type: Taşıt Kredisi 2. El - tenure: 24 - principal: 40000
saved for loan_type: Taşıt Kredisi 2. El - tenure: 24 - principal: 50000
saved for loan_type: Taşıt Kredisi 2. El - tenure: 24 - principal: 60000
saved for loan_type: Taşıt Kredisi 2. El - tenure: 24 - principal: 70000
saved for loan_type: Taşıt Kredisi 2. El - tenure: 24 - principal: 80000
saved for loan_type: Taşıt Kredisi 2. El - tenure: 24 - principal: 90000
saved for loan_type: Taşıt Kredisi 2. El - tenure: 24 - principal: 100000
saved for loan_type: Taşıt Kredisi 2. El - tenure: 24 - principal: 150000
saved for loan_type: Taşıt Kredisi 2. El - tenure: 30 - principal: 20000
saved for loan_type: Taşıt Kredisi 2. El - tenure: 30 - principal: 30000
saved for loan_type: Taşıt Kredisi 2. El - tenure: 30 - principal: 40000
saved for loan_type: Taşıt Kredisi 2. El - tenure: 30 - principal: 50000
saved for loan_type: Taşıt Kredisi 2. El - tenure: 30 - principal: 60000
saved for loan_type: Taşıt Kredisi 2. El - tenure: 30 - principal: 70000
saved for loan_type: Taşıt Kredisi 2. El - tenure: 30 - principal: 80000
saved for loan_type: Taşıt Kredisi 2. El - tenure: 30 - principal: 90000
saved for loan_type: Taşıt Kredisi 2. El - tenure: 30 - principal: 100000
saved for loan_type: Taşıt Kredisi 2. El - tenure: 30 - principal: 150000
saved for loan_type: Taşıt Kredisi 2. El - tenure: 36 - principal: 20000
saved for loan_type: Taşıt Kredisi 2. El - tenure: 36 - principal: 30000
saved for loan_type: Taşıt Kredisi 2. El - tenure: 36 - principal: 40000
saved for loan_type: Taşıt Kredisi 2. El - tenure: 36 - principal: 50000
saved for loan_type: Taşıt Kredisi 2. El - tenure: 36 - principal: 60000
saved for loan_type: Taşıt Kredisi 2. El - tenure: 36 - principal: 70000
saved for loan_type: Taşıt Kredisi 2. El - tenure: 36 - principal: 80000
saved for loan_type: Taşıt Kredisi 2. El - tenure: 36 - principal: 90000
saved for loan_type: Taşıt Kredisi 2. El - tenure: 36 - principal: 100000
saved for loan_type: Taşıt Kredisi 2. El - tenure: 36 - principal: 150000
saved for loan_type: Taşıt Kredisi 2. El - tenure: 48 - principal: 20000
saved for loan_type: Taşıt Kredisi 2. El - tenure: 48 - principal: 30000
saved for loan_type: Taşıt Kredisi 2. El - tenure: 48 - principal: 40000
saved for loan_type: Taşıt Kredisi 2. El - tenure: 48 - principal: 50000
saved for loan_type: Taşıt Kredisi 2. El - tenure: 48 - principal: 60000
saved for loan_type: Taşıt Kredisi 2. El - tenure: 48 - principal: 70000
saved for loan_type: Taşıt Kredisi 2. El - tenure: 48 - principal: 80000
saved for loan_type: Taşıt Kredisi 2. El - tenure: 48 - principal: 90000
saved for loan_type: Taşıt Kredisi 2. El - tenure: 48 - principal: 100000
saved for loan_type: Taşıt Kredisi 2. El - tenure: 48 - principal: 150000
saved for loan_type: Taşıt Kredisi 2. El - tenure: 60 - principal: 20000
saved for loan_type: Taşıt Kredisi 2. El - tenure: 60 - principal: 30000
saved for loan_type: Taşıt Kredisi 2. El - tenure: 60 - principal: 40000
saved for loan_type: Taşıt Kredisi 2. El - tenure: 60 - principal: 50000
saved for loan_type: Taşıt Kredisi 2. El - tenure: 60 - principal: 60000
saved for loan_type: Taşıt Kredisi 2. El - tenure: 60 - principal: 70000
saved for loan_type: Taşıt Kredisi 2. El - tenure: 60 - principal: 80000
saved for loan_type: Taşıt Kredisi 2. El - tenure: 60 - principal: 90000
saved for loan_type: Taşıt Kredisi 2. El - tenure: 60 - principal: 100000
saved for loan_type: Taşıt Kredisi 2. El - tenure: 60 - principal: 150000
saved for Taşıt Kredisi 2. El
saved for loan_type: Taşıt Kredisi 0 Km - tenure: 6 - principal: 20000
saved for loan_type: Taşıt Kredisi 0 Km - tenure: 6 - principal: 30000
saved for loan_type: Taşıt Kredisi 0 Km - tenure: 6 - principal: 40000
saved for loan_type: Taşıt Kredisi 0 Km - tenure: 6 - principal: 50000
saved for loan_type: Taşıt Kredisi 0 Km - tenure: 6 - principal: 60000
saved for loan_type: Taşıt Kredisi 0 Km - tenure: 6 - principal: 70000
saved for loan_type: Taşıt Kredisi 0 Km - tenure: 6 - principal: 80000
saved for loan_type: Taşıt Kredisi 0 Km - tenure: 6 - principal: 90000
saved for loan_type: Taşıt Kredisi 0 Km - tenure: 6 - principal: 100000
saved for loan_type: Taşıt Kredisi 0 Km - tenure: 6 - principal: 150000
saved for loan_type: Taşıt Kredisi 0 Km - tenure: 12 - principal: 20000
saved for loan_type: Taşıt Kredisi 0 Km - tenure: 12 - principal: 30000
saved for loan_type: Taşıt Kredisi 0 Km - tenure: 12 - principal: 40000
saved for loan_type: Taşıt Kredisi 0 Km - tenure: 12 - principal: 50000
saved for loan_type: Taşıt Kredisi 0 Km - tenure: 12 - principal: 60000
saved for loan_type: Taşıt Kredisi 0 Km - tenure: 12 - principal: 70000
saved for loan_type: Taşıt Kredisi 0 Km - tenure: 12 - principal: 80000
saved for loan_type: Taşıt Kredisi 0 Km - tenure: 12 - principal: 90000
saved for loan_type: Taşıt Kredisi 0 Km - tenure: 12 - principal: 100000
saved for loan_type: Taşıt Kredisi 0 Km - tenure: 12 - principal: 150000
saved for loan_type: Taşıt Kredisi 0 Km - tenure: 18 - principal: 20000
saved for loan_type: Taşıt Kredisi 0 Km - tenure: 18 - principal: 30000
saved for loan_type: Taşıt Kredisi 0 Km - tenure: 18 - principal: 40000
saved for loan_type: Taşıt Kredisi 0 Km - tenure: 18 - principal: 50000
saved for loan_type: Taşıt Kredisi 0 Km - tenure: 18 - principal: 60000
saved for loan_type: Taşıt Kredisi 0 Km - tenure: 18 - principal: 70000
saved for loan_type: Taşıt Kredisi 0 Km - tenure: 18 - principal: 80000
saved for loan_type: Taşıt Kredisi 0 Km - tenure: 18 - principal: 90000
saved for loan_type: Taşıt Kredisi 0 Km - tenure: 18 - principal: 100000
saved for loan_type: Taşıt Kredisi 0 Km - tenure: 18 - principal: 150000
saved for loan_type: Taşıt Kredisi 0 Km - tenure: 24 - principal: 20000
saved for loan_type: Taşıt Kredisi 0 Km - tenure: 24 - principal: 30000
saved for loan_type: Taşıt Kredisi 0 Km - tenure: 24 - principal: 40000
saved for loan_type: Taşıt Kredisi 0 Km - tenure: 24 - principal: 50000
saved for loan_type: Taşıt Kredisi 0 Km - tenure: 24 - principal: 60000
saved for loan_type: Taşıt Kredisi 0 Km - tenure: 24 - principal: 70000
saved for loan_type: Taşıt Kredisi 0 Km - tenure: 24 - principal: 80000
saved for loan_type: Taşıt Kredisi 0 Km - tenure: 24 - principal: 90000
saved for loan_type: Taşıt Kredisi 0 Km - tenure: 24 - principal: 100000
saved for loan_type: Taşıt Kredisi 0 Km - tenure: 24 - principal: 150000
saved for loan_type: Taşıt Kredisi 0 Km - tenure: 30 - principal: 20000
saved for loan_type: Taşıt Kredisi 0 Km - tenure: 30 - principal: 30000
saved for loan_type: Taşıt Kredisi 0 Km - tenure: 30 - principal: 40000
saved for loan_type: Taşıt Kredisi 0 Km - tenure: 30 - principal: 50000
saved for loan_type: Taşıt Kredisi 0 Km - tenure: 30 - principal: 60000
saved for loan_type: Taşıt Kredisi 0 Km - tenure: 30 - principal: 70000
saved for loan_type: Taşıt Kredisi 0 Km - tenure: 30 - principal: 80000
saved for loan_type: Taşıt Kredisi 0 Km - tenure: 30 - principal: 90000
saved for loan_type: Taşıt Kredisi 0 Km - tenure: 30 - principal: 100000
saved for loan_type: Taşıt Kredisi 0 Km - tenure: 30 - principal: 150000
saved for loan_type: Taşıt Kredisi 0 Km - tenure: 36 - principal: 20000
saved for loan_type: Taşıt Kredisi 0 Km - tenure: 36 - principal: 30000
saved for loan_type: Taşıt Kredisi 0 Km - tenure: 36 - principal: 40000
saved for loan_type: Taşıt Kredisi 0 Km - tenure: 36 - principal: 50000
saved for loan_type: Taşıt Kredisi 0 Km - tenure: 36 - principal: 60000
saved for loan_type: Taşıt Kredisi 0 Km - tenure: 36 - principal: 70000
saved for loan_type: Taşıt Kredisi 0 Km - tenure: 36 - principal: 80000
saved for loan_type: Taşıt Kredisi 0 Km - tenure: 36 - principal: 90000
saved for loan_type: Taşıt Kredisi 0 Km - tenure: 36 - principal: 100000
saved for loan_type: Taşıt Kredisi 0 Km - tenure: 36 - principal: 150000
saved for loan_type: Taşıt Kredisi 0 Km - tenure: 48 - principal: 20000
saved for loan_type: Taşıt Kredisi 0 Km - tenure: 48 - principal: 30000
saved for loan_type: Taşıt Kredisi 0 Km - tenure: 48 - principal: 40000
saved for loan_type: Taşıt Kredisi 0 Km - tenure: 48 - principal: 50000
saved for loan_type: Taşıt Kredisi 0 Km - tenure: 48 - principal: 60000
saved for loan_type: Taşıt Kredisi 0 Km - tenure: 48 - principal: 70000
saved for loan_type: Taşıt Kredisi 0 Km - tenure: 48 - principal: 80000
saved for loan_type: Taşıt Kredisi 0 Km - tenure: 48 - principal: 90000
saved for loan_type: Taşıt Kredisi 0 Km - tenure: 48 - principal: 100000
saved for loan_type: Taşıt Kredisi 0 Km - tenure: 48 - principal: 150000
saved for loan_type: Taşıt Kredisi 0 Km - tenure: 60 - principal: 20000
saved for loan_type: Taşıt Kredisi 0 Km - tenure: 60 - principal: 30000
saved for loan_type: Taşıt Kredisi 0 Km - tenure: 60 - principal: 40000
saved for loan_type: Taşıt Kredisi 0 Km - tenure: 60 - principal: 50000
saved for loan_type: Taşıt Kredisi 0 Km - tenure: 60 - principal: 60000
saved for loan_type: Taşıt Kredisi 0 Km - tenure: 60 - principal: 70000
saved for loan_type: Taşıt Kredisi 0 Km - tenure: 60 - principal: 80000
saved for loan_type: Taşıt Kredisi 0 Km - tenure: 60 - principal: 90000
saved for loan_type: Taşıt Kredisi 0 Km - tenure: 60 - principal: 100000
saved for loan_type: Taşıt Kredisi 0 Km - tenure: 60 - principal: 150000
saved for Taşıt Kredisi 0 Km
saved for loan_type: Konut Kredisi - tenure: 12 - principal: 50000
saved for loan_type: Konut Kredisi - tenure: 12 - principal: 100000
saved for loan_type: Konut Kredisi - tenure: 12 - principal: 150000
saved for loan_type: Konut Kredisi - tenure: 12 - principal: 200000
saved for loan_type: Konut Kredisi - tenure: 24 - principal: 50000
saved for loan_type: Konut Kredisi - tenure: 24 - principal: 100000
saved for loan_type: Konut Kredisi - tenure: 24 - principal: 150000
saved for loan_type: Konut Kredisi - tenure: 24 - principal: 200000
saved for loan_type: Konut Kredisi - tenure: 36 - principal: 50000
saved for loan_type: Konut Kredisi - tenure: 36 - principal: 100000
saved for loan_type: Konut Kredisi - tenure: 36 - principal: 150000
saved for loan_type: Konut Kredisi - tenure: 36 - principal: 200000
saved for loan_type: Konut Kredisi - tenure: 48 - principal: 50000
saved for loan_type: Konut Kredisi - tenure: 48 - principal: 100000
saved for loan_type: Konut Kredisi - tenure: 48 - principal: 150000
saved for loan_type: Konut Kredisi - tenure: 48 - principal: 200000
saved for loan_type: Konut Kredisi - tenure: 60 - principal: 50000
saved for loan_type: Konut Kredisi - tenure: 60 - principal: 100000
saved for loan_type: Konut Kredisi - tenure: 60 - principal: 150000
saved for loan_type: Konut Kredisi - tenure: 60 - principal: 200000
saved for loan_type: Konut Kredisi - tenure: 72 - principal: 50000
saved for loan_type: Konut Kredisi - tenure: 72 - principal: 100000
saved for loan_type: Konut Kredisi - tenure: 72 - principal: 150000
saved for loan_type: Konut Kredisi - tenure: 72 - principal: 200000
saved for loan_type: Konut Kredisi - tenure: 84 - principal: 50000
saved for loan_type: Konut Kredisi - tenure: 84 - principal: 100000
saved for loan_type: Konut Kredisi - tenure: 84 - principal: 150000
saved for loan_type: Konut Kredisi - tenure: 84 - principal: 200000
saved for loan_type: Konut Kredisi - tenure: 96 - principal: 50000
saved for loan_type: Konut Kredisi - tenure: 96 - principal: 100000
saved for loan_type: Konut Kredisi - tenure: 96 - principal: 150000
saved for loan_type: Konut Kredisi - tenure: 96 - principal: 200000
saved for loan_type: Konut Kredisi - tenure: 108 - principal: 50000
saved for loan_type: Konut Kredisi - tenure: 108 - principal: 100000
saved for loan_type: Konut Kredisi - tenure: 108 - principal: 150000
saved for loan_type: Konut Kredisi - tenure: 108 - principal: 200000
saved for loan_type: Konut Kredisi - tenure: 120 - principal: 50000
saved for loan_type: Konut Kredisi - tenure: 120 - principal: 100000
saved for loan_type: Konut Kredisi - tenure: 120 - principal: 150000
saved for loan_type: Konut Kredisi - tenure: 120 - principal: 200000
saved for Konut Kredisi
saved for loan_type: İhtiyaç Kredisi - tenure: 3 - principal: 5000
saved for loan_type: İhtiyaç Kredisi - tenure: 3 - principal: 10000
saved for loan_type: İhtiyaç Kredisi - tenure: 3 - principal: 15000
saved for loan_type: İhtiyaç Kredisi - tenure: 3 - principal: 20000
saved for loan_type: İhtiyaç Kredisi - tenure: 3 - principal: 30000
saved for loan_type: İhtiyaç Kredisi - tenure: 3 - principal: 40000
saved for loan_type: İhtiyaç Kredisi - tenure: 3 - principal: 50000
saved for loan_type: İhtiyaç Kredisi - tenure: 6 - principal: 5000
saved for loan_type: İhtiyaç Kredisi - tenure: 6 - principal: 10000
saved for loan_type: İhtiyaç Kredisi - tenure: 6 - principal: 15000
saved for loan_type: İhtiyaç Kredisi - tenure: 6 - principal: 20000
saved for loan_type: İhtiyaç Kredisi - tenure: 6 - principal: 30000
saved for loan_type: İhtiyaç Kredisi - tenure: 6 - principal: 40000
saved for loan_type: İhtiyaç Kredisi - tenure: 6 - principal: 50000
saved for loan_type: İhtiyaç Kredisi - tenure: 9 - principal: 5000
saved for loan_type: İhtiyaç Kredisi - tenure: 9 - principal: 10000
saved for loan_type: İhtiyaç Kredisi - tenure: 9 - principal: 15000
saved for loan_type: İhtiyaç Kredisi - tenure: 9 - principal: 20000
saved for loan_type: İhtiyaç Kredisi - tenure: 9 - principal: 30000
saved for loan_type: İhtiyaç Kredisi - tenure: 9 - principal: 40000
saved for loan_type: İhtiyaç Kredisi - tenure: 9 - principal: 50000
saved for loan_type: İhtiyaç Kredisi - tenure: 12 - principal: 5000
saved for loan_type: İhtiyaç Kredisi - tenure: 12 - principal: 10000
saved for loan_type: İhtiyaç Kredisi - tenure: 12 - principal: 15000
saved for loan_type: İhtiyaç Kredisi - tenure: 12 - principal: 20000
saved for loan_type: İhtiyaç Kredisi - tenure: 12 - principal: 30000
saved for loan_type: İhtiyaç Kredisi - tenure: 12 - principal: 40000
saved for loan_type: İhtiyaç Kredisi - tenure: 12 - principal: 50000
saved for loan_type: İhtiyaç Kredisi - tenure: 18 - principal: 5000
saved for loan_type: İhtiyaç Kredisi - tenure: 18 - principal: 10000
saved for loan_type: İhtiyaç Kredisi - tenure: 18 - principal: 15000
saved for loan_type: İhtiyaç Kredisi - tenure: 18 - principal: 20000
saved for loan_type: İhtiyaç Kredisi - tenure: 18 - principal: 30000
saved for loan_type: İhtiyaç Kredisi - tenure: 18 - principal: 40000
saved for loan_type: İhtiyaç Kredisi - tenure: 18 - principal: 50000
saved for loan_type: İhtiyaç Kredisi - tenure: 24 - principal: 5000
saved for loan_type: İhtiyaç Kredisi - tenure: 24 - principal: 10000
saved for loan_type: İhtiyaç Kredisi - tenure: 24 - principal: 15000
saved for loan_type: İhtiyaç Kredisi - tenure: 24 - principal: 20000
saved for loan_type: İhtiyaç Kredisi - tenure: 24 - principal: 30000
saved for loan_type: İhtiyaç Kredisi - tenure: 24 - principal: 40000
saved for loan_type: İhtiyaç Kredisi - tenure: 24 - principal: 50000
saved for loan_type: İhtiyaç Kredisi - tenure: 30 - principal: 5000
saved for loan_type: İhtiyaç Kredisi - tenure: 30 - principal: 10000
saved for loan_type: İhtiyaç Kredisi - tenure: 30 - principal: 15000
saved for loan_type: İhtiyaç Kredisi - tenure: 30 - principal: 20000
saved for loan_type: İhtiyaç Kredisi - tenure: 30 - principal: 30000
saved for loan_type: İhtiyaç Kredisi - tenure: 30 - principal: 40000
saved for loan_type: İhtiyaç Kredisi - tenure: 30 - principal: 50000
saved for loan_type: İhtiyaç Kredisi - tenure: 36 - principal: 5000
saved for loan_type: İhtiyaç Kredisi - tenure: 36 - principal: 10000
saved for loan_type: İhtiyaç Kredisi - tenure: 36 - principal: 15000
saved for loan_type: İhtiyaç Kredisi - tenure: 36 - principal: 20000
saved for loan_type: İhtiyaç Kredisi - tenure: 36 - principal: 30000
saved for loan_type: İhtiyaç Kredisi - tenure: 36 - principal: 40000
saved for loan_type: İhtiyaç Kredisi - tenure: 36 - principal: 50000
saved for İhtiyaç Kredisi
===================================
10/01/2021, 05:24:39: loan_summary_matrix.py ended

In [2]: Do you really want to exit ([y]/n)? 
BASE_DIR: C:\hook
Python 3.7.9 (default, Aug 31 2020, 17:10:11) [MSC v.1916 64 bit (AMD64)]
Type 'copyright', 'credits' or 'license' for more information
IPython 7.19.0 -- An enhanced Interactive Python. Type '?' for help.

In [1]: 10/01/2021, 13:12:33: loan_summary_matrix.py started
===================================
saved for loan_type: Taşıt Kredisi 2. El - tenure: 6 - principal: 20000
saved for loan_type: Taşıt Kredisi 2. El - tenure: 6 - principal: 30000
saved for loan_type: Taşıt Kredisi 2. El - tenure: 6 - principal: 40000
saved for loan_type: Taşıt Kredisi 2. El - tenure: 6 - principal: 50000
saved for loan_type: Taşıt Kredisi 2. El - tenure: 6 - principal: 60000
saved for loan_type: Taşıt Kredisi 2. El - tenure: 6 - principal: 70000
saved for loan_type: Taşıt Kredisi 2. El - tenure: 6 - principal: 80000
saved for loan_type: Taşıt Kredisi 2. El - tenure: 6 - principal: 90000
saved for loan_type: Taşıt Kredisi 2. El - tenure: 6 - principal: 100000
saved for loan_type: Taşıt Kredisi 2. El - tenure: 6 - principal: 150000
saved for loan_type: Taşıt Kredisi 2. El - tenure: 12 - principal: 20000
saved for loan_type: Taşıt Kredisi 2. El - tenure: 12 - principal: 30000
saved for loan_type: Taşıt Kredisi 2. El - tenure: 12 - principal: 40000
saved for loan_type: Taşıt Kredisi 2. El - tenure: 12 - principal: 50000
saved for loan_type: Taşıt Kredisi 2. El - tenure: 12 - principal: 60000
saved for loan_type: Taşıt Kredisi 2. El - tenure: 12 - principal: 70000
saved for loan_type: Taşıt Kredisi 2. El - tenure: 12 - principal: 80000
saved for loan_type: Taşıt Kredisi 2. El - tenure: 12 - principal: 90000
saved for loan_type: Taşıt Kredisi 2. El - tenure: 12 - principal: 100000
saved for loan_type: Taşıt Kredisi 2. El - tenure: 12 - principal: 150000
saved for loan_type: Taşıt Kredisi 2. El - tenure: 18 - principal: 20000
saved for loan_type: Taşıt Kredisi 2. El - tenure: 18 - principal: 30000
saved for loan_type: Taşıt Kredisi 2. El - tenure: 18 - principal: 40000
saved for loan_type: Taşıt Kredisi 2. El - tenure: 18 - principal: 50000
saved for loan_type: Taşıt Kredisi 2. El - tenure: 18 - principal: 60000
saved for loan_type: Taşıt Kredisi 2. El - tenure: 18 - principal: 70000
saved for loan_type: Taşıt Kredisi 2. El - tenure: 18 - principal: 80000
saved for loan_type: Taşıt Kredisi 2. El - tenure: 18 - principal: 90000
saved for loan_type: Taşıt Kredisi 2. El - tenure: 18 - principal: 100000
saved for loan_type: Taşıt Kredisi 2. El - tenure: 18 - principal: 150000
saved for loan_type: Taşıt Kredisi 2. El - tenure: 24 - principal: 20000
saved for loan_type: Taşıt Kredisi 2. El - tenure: 24 - principal: 30000
saved for loan_type: Taşıt Kredisi 2. El - tenure: 24 - principal: 40000
saved for loan_type: Taşıt Kredisi 2. El - tenure: 24 - principal: 50000
saved for loan_type: Taşıt Kredisi 2. El - tenure: 24 - principal: 60000
saved for loan_type: Taşıt Kredisi 2. El - tenure: 24 - principal: 70000
saved for loan_type: Taşıt Kredisi 2. El - tenure: 24 - principal: 80000
saved for loan_type: Taşıt Kredisi 2. El - tenure: 24 - principal: 90000
saved for loan_type: Taşıt Kredisi 2. El - tenure: 24 - principal: 100000
saved for loan_type: Taşıt Kredisi 2. El - tenure: 24 - principal: 150000
saved for loan_type: Taşıt Kredisi 2. El - tenure: 30 - principal: 20000
saved for loan_type: Taşıt Kredisi 2. El - tenure: 30 - principal: 30000
saved for loan_type: Taşıt Kredisi 2. El - tenure: 30 - principal: 40000
saved for loan_type: Taşıt Kredisi 2. El - tenure: 30 - principal: 50000
saved for loan_type: Taşıt Kredisi 2. El - tenure: 30 - principal: 60000
saved for loan_type: Taşıt Kredisi 2. El - tenure: 30 - principal: 70000
saved for loan_type: Taşıt Kredisi 2. El - tenure: 30 - principal: 80000
saved for loan_type: Taşıt Kredisi 2. El - tenure: 30 - principal: 90000
saved for loan_type: Taşıt Kredisi 2. El - tenure: 30 - principal: 100000
saved for loan_type: Taşıt Kredisi 2. El - tenure: 30 - principal: 150000
saved for loan_type: Taşıt Kredisi 2. El - tenure: 36 - principal: 20000
saved for loan_type: Taşıt Kredisi 2. El - tenure: 36 - principal: 30000
saved for loan_type: Taşıt Kredisi 2. El - tenure: 36 - principal: 40000
saved for loan_type: Taşıt Kredisi 2. El - tenure: 36 - principal: 50000
saved for loan_type: Taşıt Kredisi 2. El - tenure: 36 - principal: 60000
saved for loan_type: Taşıt Kredisi 2. El - tenure: 36 - principal: 70000
saved for loan_type: Taşıt Kredisi 2. El - tenure: 36 - principal: 80000
saved for loan_type: Taşıt Kredisi 2. El - tenure: 36 - principal: 90000
saved for loan_type: Taşıt Kredisi 2. El - tenure: 36 - principal: 100000
saved for loan_type: Taşıt Kredisi 2. El - tenure: 36 - principal: 150000
saved for loan_type: Taşıt Kredisi 2. El - tenure: 48 - principal: 20000
saved for loan_type: Taşıt Kredisi 2. El - tenure: 48 - principal: 30000
saved for loan_type: Taşıt Kredisi 2. El - tenure: 48 - principal: 40000
saved for loan_type: Taşıt Kredisi 2. El - tenure: 48 - principal: 50000
saved for loan_type: Taşıt Kredisi 2. El - tenure: 48 - principal: 60000
saved for loan_type: Taşıt Kredisi 2. El - tenure: 48 - principal: 70000
saved for loan_type: Taşıt Kredisi 2. El - tenure: 48 - principal: 80000
saved for loan_type: Taşıt Kredisi 2. El - tenure: 48 - principal: 90000
saved for loan_type: Taşıt Kredisi 2. El - tenure: 48 - principal: 100000
saved for loan_type: Taşıt Kredisi 2. El - tenure: 48 - principal: 150000
saved for loan_type: Taşıt Kredisi 2. El - tenure: 60 - principal: 20000
saved for loan_type: Taşıt Kredisi 2. El - tenure: 60 - principal: 30000
saved for loan_type: Taşıt Kredisi 2. El - tenure: 60 - principal: 40000
saved for loan_type: Taşıt Kredisi 2. El - tenure: 60 - principal: 50000
saved for loan_type: Taşıt Kredisi 2. El - tenure: 60 - principal: 60000
saved for loan_type: Taşıt Kredisi 2. El - tenure: 60 - principal: 70000
saved for loan_type: Taşıt Kredisi 2. El - tenure: 60 - principal: 80000
saved for loan_type: Taşıt Kredisi 2. El - tenure: 60 - principal: 90000
saved for loan_type: Taşıt Kredisi 2. El - tenure: 60 - principal: 100000
saved for loan_type: Taşıt Kredisi 2. El - tenure: 60 - principal: 150000
saved for Taşıt Kredisi 2. El
saved for loan_type: Taşıt Kredisi 0 Km - tenure: 6 - principal: 20000
saved for loan_type: Taşıt Kredisi 0 Km - tenure: 6 - principal: 30000
saved for loan_type: Taşıt Kredisi 0 Km - tenure: 6 - principal: 40000
saved for loan_type: Taşıt Kredisi 0 Km - tenure: 6 - principal: 50000
saved for loan_type: Taşıt Kredisi 0 Km - tenure: 6 - principal: 60000
saved for loan_type: Taşıt Kredisi 0 Km - tenure: 6 - principal: 70000
saved for loan_type: Taşıt Kredisi 0 Km - tenure: 6 - principal: 80000
saved for loan_type: Taşıt Kredisi 0 Km - tenure: 6 - principal: 90000
saved for loan_type: Taşıt Kredisi 0 Km - tenure: 6 - principal: 100000
saved for loan_type: Taşıt Kredisi 0 Km - tenure: 6 - principal: 150000
saved for loan_type: Taşıt Kredisi 0 Km - tenure: 12 - principal: 20000
saved for loan_type: Taşıt Kredisi 0 Km - tenure: 12 - principal: 30000
saved for loan_type: Taşıt Kredisi 0 Km - tenure: 12 - principal: 40000
saved for loan_type: Taşıt Kredisi 0 Km - tenure: 12 - principal: 50000
saved for loan_type: Taşıt Kredisi 0 Km - tenure: 12 - principal: 60000
saved for loan_type: Taşıt Kredisi 0 Km - tenure: 12 - principal: 70000
saved for loan_type: Taşıt Kredisi 0 Km - tenure: 12 - principal: 80000
saved for loan_type: Taşıt Kredisi 0 Km - tenure: 12 - principal: 90000
saved for loan_type: Taşıt Kredisi 0 Km - tenure: 12 - principal: 100000
saved for loan_type: Taşıt Kredisi 0 Km - tenure: 12 - principal: 150000
saved for loan_type: Taşıt Kredisi 0 Km - tenure: 18 - principal: 20000
saved for loan_type: Taşıt Kredisi 0 Km - tenure: 18 - principal: 30000
saved for loan_type: Taşıt Kredisi 0 Km - tenure: 18 - principal: 40000
saved for loan_type: Taşıt Kredisi 0 Km - tenure: 18 - principal: 50000
saved for loan_type: Taşıt Kredisi 0 Km - tenure: 18 - principal: 60000
saved for loan_type: Taşıt Kredisi 0 Km - tenure: 18 - principal: 70000
saved for loan_type: Taşıt Kredisi 0 Km - tenure: 18 - principal: 80000
saved for loan_type: Taşıt Kredisi 0 Km - tenure: 18 - principal: 90000
saved for loan_type: Taşıt Kredisi 0 Km - tenure: 18 - principal: 100000
saved for loan_type: Taşıt Kredisi 0 Km - tenure: 18 - principal: 150000
saved for loan_type: Taşıt Kredisi 0 Km - tenure: 24 - principal: 20000
saved for loan_type: Taşıt Kredisi 0 Km - tenure: 24 - principal: 30000
saved for loan_type: Taşıt Kredisi 0 Km - tenure: 24 - principal: 40000
saved for loan_type: Taşıt Kredisi 0 Km - tenure: 24 - principal: 50000
saved for loan_type: Taşıt Kredisi 0 Km - tenure: 24 - principal: 60000
saved for loan_type: Taşıt Kredisi 0 Km - tenure: 24 - principal: 70000
saved for loan_type: Taşıt Kredisi 0 Km - tenure: 24 - principal: 80000
saved for loan_type: Taşıt Kredisi 0 Km - tenure: 24 - principal: 90000
saved for loan_type: Taşıt Kredisi 0 Km - tenure: 24 - principal: 100000
saved for loan_type: Taşıt Kredisi 0 Km - tenure: 24 - principal: 150000
saved for loan_type: Taşıt Kredisi 0 Km - tenure: 30 - principal: 20000
saved for loan_type: Taşıt Kredisi 0 Km - tenure: 30 - principal: 30000
saved for loan_type: Taşıt Kredisi 0 Km - tenure: 30 - principal: 40000
saved for loan_type: Taşıt Kredisi 0 Km - tenure: 30 - principal: 50000
saved for loan_type: Taşıt Kredisi 0 Km - tenure: 30 - principal: 60000
saved for loan_type: Taşıt Kredisi 0 Km - tenure: 30 - principal: 70000
saved for loan_type: Taşıt Kredisi 0 Km - tenure: 30 - principal: 80000
saved for loan_type: Taşıt Kredisi 0 Km - tenure: 30 - principal: 90000
saved for loan_type: Taşıt Kredisi 0 Km - tenure: 30 - principal: 100000
saved for loan_type: Taşıt Kredisi 0 Km - tenure: 30 - principal: 150000
saved for loan_type: Taşıt Kredisi 0 Km - tenure: 36 - principal: 20000
saved for loan_type: Taşıt Kredisi 0 Km - tenure: 36 - principal: 30000
saved for loan_type: Taşıt Kredisi 0 Km - tenure: 36 - principal: 40000
saved for loan_type: Taşıt Kredisi 0 Km - tenure: 36 - principal: 50000
saved for loan_type: Taşıt Kredisi 0 Km - tenure: 36 - principal: 60000
saved for loan_type: Taşıt Kredisi 0 Km - tenure: 36 - principal: 70000
saved for loan_type: Taşıt Kredisi 0 Km - tenure: 36 - principal: 80000
saved for loan_type: Taşıt Kredisi 0 Km - tenure: 36 - principal: 90000
saved for loan_type: Taşıt Kredisi 0 Km - tenure: 36 - principal: 100000
saved for loan_type: Taşıt Kredisi 0 Km - tenure: 36 - principal: 150000
saved for loan_type: Taşıt Kredisi 0 Km - tenure: 48 - principal: 20000
saved for loan_type: Taşıt Kredisi 0 Km - tenure: 48 - principal: 30000
saved for loan_type: Taşıt Kredisi 0 Km - tenure: 48 - principal: 40000
saved for loan_type: Taşıt Kredisi 0 Km - tenure: 48 - principal: 50000
saved for loan_type: Taşıt Kredisi 0 Km - tenure: 48 - principal: 60000
saved for loan_type: Taşıt Kredisi 0 Km - tenure: 48 - principal: 70000
saved for loan_type: Taşıt Kredisi 0 Km - tenure: 48 - principal: 80000
saved for loan_type: Taşıt Kredisi 0 Km - tenure: 48 - principal: 90000
saved for loan_type: Taşıt Kredisi 0 Km - tenure: 48 - principal: 100000
saved for loan_type: Taşıt Kredisi 0 Km - tenure: 48 - principal: 150000
saved for loan_type: Taşıt Kredisi 0 Km - tenure: 60 - principal: 20000
saved for loan_type: Taşıt Kredisi 0 Km - tenure: 60 - principal: 30000
saved for loan_type: Taşıt Kredisi 0 Km - tenure: 60 - principal: 40000
saved for loan_type: Taşıt Kredisi 0 Km - tenure: 60 - principal: 50000
saved for loan_type: Taşıt Kredisi 0 Km - tenure: 60 - principal: 60000
saved for loan_type: Taşıt Kredisi 0 Km - tenure: 60 - principal: 70000
saved for loan_type: Taşıt Kredisi 0 Km - tenure: 60 - principal: 80000
saved for loan_type: Taşıt Kredisi 0 Km - tenure: 60 - principal: 90000
saved for loan_type: Taşıt Kredisi 0 Km - tenure: 60 - principal: 100000
saved for loan_type: Taşıt Kredisi 0 Km - tenure: 60 - principal: 150000
saved for Taşıt Kredisi 0 Km
saved for loan_type: Konut Kredisi - tenure: 12 - principal: 50000
saved for loan_type: Konut Kredisi - tenure: 12 - principal: 100000
saved for loan_type: Konut Kredisi - tenure: 12 - principal: 150000
saved for loan_type: Konut Kredisi - tenure: 12 - principal: 200000
saved for loan_type: Konut Kredisi - tenure: 24 - principal: 50000
saved for loan_type: Konut Kredisi - tenure: 24 - principal: 100000
saved for loan_type: Konut Kredisi - tenure: 24 - principal: 150000
saved for loan_type: Konut Kredisi - tenure: 24 - principal: 200000
saved for loan_type: Konut Kredisi - tenure: 36 - principal: 50000
saved for loan_type: Konut Kredisi - tenure: 36 - principal: 100000
saved for loan_type: Konut Kredisi - tenure: 36 - principal: 150000
saved for loan_type: Konut Kredisi - tenure: 36 - principal: 200000
saved for loan_type: Konut Kredisi - tenure: 48 - principal: 50000
saved for loan_type: Konut Kredisi - tenure: 48 - principal: 100000
saved for loan_type: Konut Kredisi - tenure: 48 - principal: 150000
saved for loan_type: Konut Kredisi - tenure: 48 - principal: 200000
saved for loan_type: Konut Kredisi - tenure: 60 - principal: 50000
saved for loan_type: Konut Kredisi - tenure: 60 - principal: 100000
saved for loan_type: Konut Kredisi - tenure: 60 - principal: 150000
saved for loan_type: Konut Kredisi - tenure: 60 - principal: 200000
saved for loan_type: Konut Kredisi - tenure: 72 - principal: 50000
saved for loan_type: Konut Kredisi - tenure: 72 - principal: 100000
saved for loan_type: Konut Kredisi - tenure: 72 - principal: 150000
saved for loan_type: Konut Kredisi - tenure: 72 - principal: 200000
saved for loan_type: Konut Kredisi - tenure: 84 - principal: 50000
saved for loan_type: Konut Kredisi - tenure: 84 - principal: 100000
saved for loan_type: Konut Kredisi - tenure: 84 - principal: 150000
saved for loan_type: Konut Kredisi - tenure: 84 - principal: 200000
saved for loan_type: Konut Kredisi - tenure: 96 - principal: 50000
saved for loan_type: Konut Kredisi - tenure: 96 - principal: 100000
saved for loan_type: Konut Kredisi - tenure: 96 - principal: 150000
saved for loan_type: Konut Kredisi - tenure: 96 - principal: 200000
saved for loan_type: Konut Kredisi - tenure: 108 - principal: 50000
saved for loan_type: Konut Kredisi - tenure: 108 - principal: 100000
saved for loan_type: Konut Kredisi - tenure: 108 - principal: 150000
saved for loan_type: Konut Kredisi - tenure: 108 - principal: 200000
saved for loan_type: Konut Kredisi - tenure: 120 - principal: 50000
saved for loan_type: Konut Kredisi - tenure: 120 - principal: 100000
saved for loan_type: Konut Kredisi - tenure: 120 - principal: 150000
saved for loan_type: Konut Kredisi - tenure: 120 - principal: 200000
saved for Konut Kredisi
saved for loan_type: İhtiyaç Kredisi - tenure: 3 - principal: 5000
saved for loan_type: İhtiyaç Kredisi - tenure: 3 - principal: 10000
saved for loan_type: İhtiyaç Kredisi - tenure: 3 - principal: 15000
saved for loan_type: İhtiyaç Kredisi - tenure: 3 - principal: 20000
saved for loan_type: İhtiyaç Kredisi - tenure: 3 - principal: 30000
saved for loan_type: İhtiyaç Kredisi - tenure: 3 - principal: 40000
saved for loan_type: İhtiyaç Kredisi - tenure: 3 - principal: 50000
saved for loan_type: İhtiyaç Kredisi - tenure: 6 - principal: 5000
saved for loan_type: İhtiyaç Kredisi - tenure: 6 - principal: 10000
saved for loan_type: İhtiyaç Kredisi - tenure: 6 - principal: 15000
saved for loan_type: İhtiyaç Kredisi - tenure: 6 - principal: 20000
saved for loan_type: İhtiyaç Kredisi - tenure: 6 - principal: 30000
saved for loan_type: İhtiyaç Kredisi - tenure: 6 - principal: 40000
saved for loan_type: İhtiyaç Kredisi - tenure: 6 - principal: 50000
saved for loan_type: İhtiyaç Kredisi - tenure: 9 - principal: 5000
saved for loan_type: İhtiyaç Kredisi - tenure: 9 - principal: 10000
saved for loan_type: İhtiyaç Kredisi - tenure: 9 - principal: 15000
saved for loan_type: İhtiyaç Kredisi - tenure: 9 - principal: 20000
saved for loan_type: İhtiyaç Kredisi - tenure: 9 - principal: 30000
saved for loan_type: İhtiyaç Kredisi - tenure: 9 - principal: 40000
saved for loan_type: İhtiyaç Kredisi - tenure: 9 - principal: 50000
saved for loan_type: İhtiyaç Kredisi - tenure: 12 - principal: 5000
saved for loan_type: İhtiyaç Kredisi - tenure: 12 - principal: 10000
saved for loan_type: İhtiyaç Kredisi - tenure: 12 - principal: 15000
saved for loan_type: İhtiyaç Kredisi - tenure: 12 - principal: 20000
saved for loan_type: İhtiyaç Kredisi - tenure: 12 - principal: 30000
saved for loan_type: İhtiyaç Kredisi - tenure: 12 - principal: 40000
saved for loan_type: İhtiyaç Kredisi - tenure: 12 - principal: 50000
saved for loan_type: İhtiyaç Kredisi - tenure: 18 - principal: 5000
saved for loan_type: İhtiyaç Kredisi - tenure: 18 - principal: 10000
saved for loan_type: İhtiyaç Kredisi - tenure: 18 - principal: 15000
saved for loan_type: İhtiyaç Kredisi - tenure: 18 - principal: 20000
saved for loan_type: İhtiyaç Kredisi - tenure: 18 - principal: 30000
saved for loan_type: İhtiyaç Kredisi - tenure: 18 - principal: 40000
saved for loan_type: İhtiyaç Kredisi - tenure: 18 - principal: 50000
saved for loan_type: İhtiyaç Kredisi - tenure: 24 - principal: 5000
saved for loan_type: İhtiyaç Kredisi - tenure: 24 - principal: 10000
saved for loan_type: İhtiyaç Kredisi - tenure: 24 - principal: 15000
saved for loan_type: İhtiyaç Kredisi - tenure: 24 - principal: 20000
saved for loan_type: İhtiyaç Kredisi - tenure: 24 - principal: 30000
saved for loan_type: İhtiyaç Kredisi - tenure: 24 - principal: 40000
saved for loan_type: İhtiyaç Kredisi - tenure: 24 - principal: 50000
saved for loan_type: İhtiyaç Kredisi - tenure: 30 - principal: 5000
saved for loan_type: İhtiyaç Kredisi - tenure: 30 - principal: 10000
saved for loan_type: İhtiyaç Kredisi - tenure: 30 - principal: 15000
saved for loan_type: İhtiyaç Kredisi - tenure: 30 - principal: 20000
saved for loan_type: İhtiyaç Kredisi - tenure: 30 - principal: 30000
saved for loan_type: İhtiyaç Kredisi - tenure: 30 - principal: 40000
saved for loan_type: İhtiyaç Kredisi - tenure: 30 - principal: 50000
saved for loan_type: İhtiyaç Kredisi - tenure: 36 - principal: 5000
saved for loan_type: İhtiyaç Kredisi - tenure: 36 - principal: 10000
saved for loan_type: İhtiyaç Kredisi - tenure: 36 - principal: 15000
saved for loan_type: İhtiyaç Kredisi - tenure: 36 - principal: 20000
saved for loan_type: İhtiyaç Kredisi - tenure: 36 - principal: 30000
saved for loan_type: İhtiyaç Kredisi - tenure: 36 - principal: 40000
saved for loan_type: İhtiyaç Kredisi - tenure: 36 - principal: 50000
saved for İhtiyaç Kredisi
===================================
10/01/2021, 13:13:04: loan_summary_matrix.py ended

In [2]: Do you really want to exit ([y]/n)? 
BASE_DIR: C:\hook
Python 3.7.9 (default, Aug 31 2020, 17:10:11) [MSC v.1916 64 bit (AMD64)]
Type 'copyright', 'credits' or 'license' for more information
IPython 7.19.0 -- An enhanced Interactive Python. Type '?' for help.

In [1]: 10/01/2021, 13:48:16: loan_summary_matrix.py started
===================================
saved for loan_type: Taşıt Kredisi 2. El - tenure: 6 - principal: 20000
saved for loan_type: Taşıt Kredisi 2. El - tenure: 6 - principal: 30000
saved for loan_type: Taşıt Kredisi 2. El - tenure: 6 - principal: 40000
saved for loan_type: Taşıt Kredisi 2. El - tenure: 6 - principal: 50000
saved for loan_type: Taşıt Kredisi 2. El - tenure: 6 - principal: 60000
saved for loan_type: Taşıt Kredisi 2. El - tenure: 6 - principal: 70000
saved for loan_type: Taşıt Kredisi 2. El - tenure: 6 - principal: 80000
saved for loan_type: Taşıt Kredisi 2. El - tenure: 6 - principal: 90000
saved for loan_type: Taşıt Kredisi 2. El - tenure: 6 - principal: 100000
saved for loan_type: Taşıt Kredisi 2. El - tenure: 6 - principal: 150000
saved for loan_type: Taşıt Kredisi 2. El - tenure: 12 - principal: 20000
saved for loan_type: Taşıt Kredisi 2. El - tenure: 12 - principal: 30000
saved for loan_type: Taşıt Kredisi 2. El - tenure: 12 - principal: 40000
saved for loan_type: Taşıt Kredisi 2. El - tenure: 12 - principal: 50000
saved for loan_type: Taşıt Kredisi 2. El - tenure: 12 - principal: 60000
saved for loan_type: Taşıt Kredisi 2. El - tenure: 12 - principal: 70000
saved for loan_type: Taşıt Kredisi 2. El - tenure: 12 - principal: 80000
saved for loan_type: Taşıt Kredisi 2. El - tenure: 12 - principal: 90000
saved for loan_type: Taşıt Kredisi 2. El - tenure: 12 - principal: 100000
saved for loan_type: Taşıt Kredisi 2. El - tenure: 12 - principal: 150000
saved for loan_type: Taşıt Kredisi 2. El - tenure: 18 - principal: 20000
saved for loan_type: Taşıt Kredisi 2. El - tenure: 18 - principal: 30000
saved for loan_type: Taşıt Kredisi 2. El - tenure: 18 - principal: 40000
saved for loan_type: Taşıt Kredisi 2. El - tenure: 18 - principal: 50000
saved for loan_type: Taşıt Kredisi 2. El - tenure: 18 - principal: 60000
saved for loan_type: Taşıt Kredisi 2. El - tenure: 18 - principal: 70000
saved for loan_type: Taşıt Kredisi 2. El - tenure: 18 - principal: 80000
saved for loan_type: Taşıt Kredisi 2. El - tenure: 18 - principal: 90000
saved for loan_type: Taşıt Kredisi 2. El - tenure: 18 - principal: 100000
saved for loan_type: Taşıt Kredisi 2. El - tenure: 18 - principal: 150000
saved for loan_type: Taşıt Kredisi 2. El - tenure: 24 - principal: 20000
saved for loan_type: Taşıt Kredisi 2. El - tenure: 24 - principal: 30000
saved for loan_type: Taşıt Kredisi 2. El - tenure: 24 - principal: 40000
saved for loan_type: Taşıt Kredisi 2. El - tenure: 24 - principal: 50000
saved for loan_type: Taşıt Kredisi 2. El - tenure: 24 - principal: 60000
saved for loan_type: Taşıt Kredisi 2. El - tenure: 24 - principal: 70000
saved for loan_type: Taşıt Kredisi 2. El - tenure: 24 - principal: 80000
saved for loan_type: Taşıt Kredisi 2. El - tenure: 24 - principal: 90000
saved for loan_type: Taşıt Kredisi 2. El - tenure: 24 - principal: 100000
saved for loan_type: Taşıt Kredisi 2. El - tenure: 24 - principal: 150000
saved for loan_type: Taşıt Kredisi 2. El - tenure: 30 - principal: 20000
saved for loan_type: Taşıt Kredisi 2. El - tenure: 30 - principal: 30000
saved for loan_type: Taşıt Kredisi 2. El - tenure: 30 - principal: 40000
saved for loan_type: Taşıt Kredisi 2. El - tenure: 30 - principal: 50000
saved for loan_type: Taşıt Kredisi 2. El - tenure: 30 - principal: 60000
saved for loan_type: Taşıt Kredisi 2. El - tenure: 30 - principal: 70000
saved for loan_type: Taşıt Kredisi 2. El - tenure: 30 - principal: 80000
saved for loan_type: Taşıt Kredisi 2. El - tenure: 30 - principal: 90000
saved for loan_type: Taşıt Kredisi 2. El - tenure: 30 - principal: 100000
saved for loan_type: Taşıt Kredisi 2. El - tenure: 30 - principal: 150000
saved for loan_type: Taşıt Kredisi 2. El - tenure: 36 - principal: 20000
saved for loan_type: Taşıt Kredisi 2. El - tenure: 36 - principal: 30000
saved for loan_type: Taşıt Kredisi 2. El - tenure: 36 - principal: 40000
saved for loan_type: Taşıt Kredisi 2. El - tenure: 36 - principal: 50000
saved for loan_type: Taşıt Kredisi 2. El - tenure: 36 - principal: 60000
saved for loan_type: Taşıt Kredisi 2. El - tenure: 36 - principal: 70000
saved for loan_type: Taşıt Kredisi 2. El - tenure: 36 - principal: 80000
saved for loan_type: Taşıt Kredisi 2. El - tenure: 36 - principal: 90000
saved for loan_type: Taşıt Kredisi 2. El - tenure: 36 - principal: 100000
saved for loan_type: Taşıt Kredisi 2. El - tenure: 36 - principal: 150000
saved for loan_type: Taşıt Kredisi 2. El - tenure: 48 - principal: 20000
saved for loan_type: Taşıt Kredisi 2. El - tenure: 48 - principal: 30000
saved for loan_type: Taşıt Kredisi 2. El - tenure: 48 - principal: 40000
saved for loan_type: Taşıt Kredisi 2. El - tenure: 48 - principal: 50000
saved for loan_type: Taşıt Kredisi 2. El - tenure: 48 - principal: 60000
saved for loan_type: Taşıt Kredisi 2. El - tenure: 48 - principal: 70000
saved for loan_type: Taşıt Kredisi 2. El - tenure: 48 - principal: 80000
saved for loan_type: Taşıt Kredisi 2. El - tenure: 48 - principal: 90000
saved for loan_type: Taşıt Kredisi 2. El - tenure: 48 - principal: 100000
saved for loan_type: Taşıt Kredisi 2. El - tenure: 48 - principal: 150000
saved for loan_type: Taşıt Kredisi 2. El - tenure: 60 - principal: 20000
saved for loan_type: Taşıt Kredisi 2. El - tenure: 60 - principal: 30000
saved for loan_type: Taşıt Kredisi 2. El - tenure: 60 - principal: 40000
saved for loan_type: Taşıt Kredisi 2. El - tenure: 60 - principal: 50000
saved for loan_type: Taşıt Kredisi 2. El - tenure: 60 - principal: 60000
saved for loan_type: Taşıt Kredisi 2. El - tenure: 60 - principal: 70000
saved for loan_type: Taşıt Kredisi 2. El - tenure: 60 - principal: 80000
saved for loan_type: Taşıt Kredisi 2. El - tenure: 60 - principal: 90000
saved for loan_type: Taşıt Kredisi 2. El - tenure: 60 - principal: 100000
saved for loan_type: Taşıt Kredisi 2. El - tenure: 60 - principal: 150000
saved for Taşıt Kredisi 2. El
saved for loan_type: Taşıt Kredisi 0 Km - tenure: 6 - principal: 20000
saved for loan_type: Taşıt Kredisi 0 Km - tenure: 6 - principal: 30000
saved for loan_type: Taşıt Kredisi 0 Km - tenure: 6 - principal: 40000
saved for loan_type: Taşıt Kredisi 0 Km - tenure: 6 - principal: 50000
saved for loan_type: Taşıt Kredisi 0 Km - tenure: 6 - principal: 60000
saved for loan_type: Taşıt Kredisi 0 Km - tenure: 6 - principal: 70000
saved for loan_type: Taşıt Kredisi 0 Km - tenure: 6 - principal: 80000
saved for loan_type: Taşıt Kredisi 0 Km - tenure: 6 - principal: 90000
saved for loan_type: Taşıt Kredisi 0 Km - tenure: 6 - principal: 100000
saved for loan_type: Taşıt Kredisi 0 Km - tenure: 6 - principal: 150000
saved for loan_type: Taşıt Kredisi 0 Km - tenure: 12 - principal: 20000
saved for loan_type: Taşıt Kredisi 0 Km - tenure: 12 - principal: 30000
saved for loan_type: Taşıt Kredisi 0 Km - tenure: 12 - principal: 40000
saved for loan_type: Taşıt Kredisi 0 Km - tenure: 12 - principal: 50000
saved for loan_type: Taşıt Kredisi 0 Km - tenure: 12 - principal: 60000
saved for loan_type: Taşıt Kredisi 0 Km - tenure: 12 - principal: 70000
saved for loan_type: Taşıt Kredisi 0 Km - tenure: 12 - principal: 80000
saved for loan_type: Taşıt Kredisi 0 Km - tenure: 12 - principal: 90000
saved for loan_type: Taşıt Kredisi 0 Km - tenure: 12 - principal: 100000
saved for loan_type: Taşıt Kredisi 0 Km - tenure: 12 - principal: 150000
saved for loan_type: Taşıt Kredisi 0 Km - tenure: 18 - principal: 20000
saved for loan_type: Taşıt Kredisi 0 Km - tenure: 18 - principal: 30000
saved for loan_type: Taşıt Kredisi 0 Km - tenure: 18 - principal: 40000
saved for loan_type: Taşıt Kredisi 0 Km - tenure: 18 - principal: 50000
saved for loan_type: Taşıt Kredisi 0 Km - tenure: 18 - principal: 60000
saved for loan_type: Taşıt Kredisi 0 Km - tenure: 18 - principal: 70000
saved for loan_type: Taşıt Kredisi 0 Km - tenure: 18 - principal: 80000
saved for loan_type: Taşıt Kredisi 0 Km - tenure: 18 - principal: 90000
saved for loan_type: Taşıt Kredisi 0 Km - tenure: 18 - principal: 100000
saved for loan_type: Taşıt Kredisi 0 Km - tenure: 18 - principal: 150000
saved for loan_type: Taşıt Kredisi 0 Km - tenure: 24 - principal: 20000
saved for loan_type: Taşıt Kredisi 0 Km - tenure: 24 - principal: 30000
saved for loan_type: Taşıt Kredisi 0 Km - tenure: 24 - principal: 40000
saved for loan_type: Taşıt Kredisi 0 Km - tenure: 24 - principal: 50000
saved for loan_type: Taşıt Kredisi 0 Km - tenure: 24 - principal: 60000
saved for loan_type: Taşıt Kredisi 0 Km - tenure: 24 - principal: 70000
saved for loan_type: Taşıt Kredisi 0 Km - tenure: 24 - principal: 80000
saved for loan_type: Taşıt Kredisi 0 Km - tenure: 24 - principal: 90000
saved for loan_type: Taşıt Kredisi 0 Km - tenure: 24 - principal: 100000
saved for loan_type: Taşıt Kredisi 0 Km - tenure: 24 - principal: 150000
saved for loan_type: Taşıt Kredisi 0 Km - tenure: 30 - principal: 20000
saved for loan_type: Taşıt Kredisi 0 Km - tenure: 30 - principal: 30000
saved for loan_type: Taşıt Kredisi 0 Km - tenure: 30 - principal: 40000
saved for loan_type: Taşıt Kredisi 0 Km - tenure: 30 - principal: 50000
saved for loan_type: Taşıt Kredisi 0 Km - tenure: 30 - principal: 60000
saved for loan_type: Taşıt Kredisi 0 Km - tenure: 30 - principal: 70000
saved for loan_type: Taşıt Kredisi 0 Km - tenure: 30 - principal: 80000
saved for loan_type: Taşıt Kredisi 0 Km - tenure: 30 - principal: 90000
saved for loan_type: Taşıt Kredisi 0 Km - tenure: 30 - principal: 100000
saved for loan_type: Taşıt Kredisi 0 Km - tenure: 30 - principal: 150000
saved for loan_type: Taşıt Kredisi 0 Km - tenure: 36 - principal: 20000
saved for loan_type: Taşıt Kredisi 0 Km - tenure: 36 - principal: 30000
saved for loan_type: Taşıt Kredisi 0 Km - tenure: 36 - principal: 40000
saved for loan_type: Taşıt Kredisi 0 Km - tenure: 36 - principal: 50000
saved for loan_type: Taşıt Kredisi 0 Km - tenure: 36 - principal: 60000
saved for loan_type: Taşıt Kredisi 0 Km - tenure: 36 - principal: 70000
saved for loan_type: Taşıt Kredisi 0 Km - tenure: 36 - principal: 80000
saved for loan_type: Taşıt Kredisi 0 Km - tenure: 36 - principal: 90000
saved for loan_type: Taşıt Kredisi 0 Km - tenure: 36 - principal: 100000
saved for loan_type: Taşıt Kredisi 0 Km - tenure: 36 - principal: 150000
saved for loan_type: Taşıt Kredisi 0 Km - tenure: 48 - principal: 20000
saved for loan_type: Taşıt Kredisi 0 Km - tenure: 48 - principal: 30000
saved for loan_type: Taşıt Kredisi 0 Km - tenure: 48 - principal: 40000
saved for loan_type: Taşıt Kredisi 0 Km - tenure: 48 - principal: 50000
saved for loan_type: Taşıt Kredisi 0 Km - tenure: 48 - principal: 60000
saved for loan_type: Taşıt Kredisi 0 Km - tenure: 48 - principal: 70000
saved for loan_type: Taşıt Kredisi 0 Km - tenure: 48 - principal: 80000
saved for loan_type: Taşıt Kredisi 0 Km - tenure: 48 - principal: 90000
saved for loan_type: Taşıt Kredisi 0 Km - tenure: 48 - principal: 100000
saved for loan_type: Taşıt Kredisi 0 Km - tenure: 48 - principal: 150000
saved for loan_type: Taşıt Kredisi 0 Km - tenure: 60 - principal: 20000
saved for loan_type: Taşıt Kredisi 0 Km - tenure: 60 - principal: 30000
saved for loan_type: Taşıt Kredisi 0 Km - tenure: 60 - principal: 40000
saved for loan_type: Taşıt Kredisi 0 Km - tenure: 60 - principal: 50000
saved for loan_type: Taşıt Kredisi 0 Km - tenure: 60 - principal: 60000
saved for loan_type: Taşıt Kredisi 0 Km - tenure: 60 - principal: 70000
saved for loan_type: Taşıt Kredisi 0 Km - tenure: 60 - principal: 80000
saved for loan_type: Taşıt Kredisi 0 Km - tenure: 60 - principal: 90000
saved for loan_type: Taşıt Kredisi 0 Km - tenure: 60 - principal: 100000
saved for loan_type: Taşıt Kredisi 0 Km - tenure: 60 - principal: 150000
saved for Taşıt Kredisi 0 Km
saved for loan_type: Konut Kredisi - tenure: 12 - principal: 50000
saved for loan_type: Konut Kredisi - tenure: 12 - principal: 100000
saved for loan_type: Konut Kredisi - tenure: 12 - principal: 150000
saved for loan_type: Konut Kredisi - tenure: 12 - principal: 200000
saved for loan_type: Konut Kredisi - tenure: 24 - principal: 50000
saved for loan_type: Konut Kredisi - tenure: 24 - principal: 100000
saved for loan_type: Konut Kredisi - tenure: 24 - principal: 150000
saved for loan_type: Konut Kredisi - tenure: 24 - principal: 200000
saved for loan_type: Konut Kredisi - tenure: 36 - principal: 50000
saved for loan_type: Konut Kredisi - tenure: 36 - principal: 100000
saved for loan_type: Konut Kredisi - tenure: 36 - principal: 150000
saved for loan_type: Konut Kredisi - tenure: 36 - principal: 200000
saved for loan_type: Konut Kredisi - tenure: 48 - principal: 50000
saved for loan_type: Konut Kredisi - tenure: 48 - principal: 100000
saved for loan_type: Konut Kredisi - tenure: 48 - principal: 150000
saved for loan_type: Konut Kredisi - tenure: 48 - principal: 200000
saved for loan_type: Konut Kredisi - tenure: 60 - principal: 50000
saved for loan_type: Konut Kredisi - tenure: 60 - principal: 100000
saved for loan_type: Konut Kredisi - tenure: 60 - principal: 150000
saved for loan_type: Konut Kredisi - tenure: 60 - principal: 200000
saved for loan_type: Konut Kredisi - tenure: 72 - principal: 50000
saved for loan_type: Konut Kredisi - tenure: 72 - principal: 100000
saved for loan_type: Konut Kredisi - tenure: 72 - principal: 150000
saved for loan_type: Konut Kredisi - tenure: 72 - principal: 200000
saved for loan_type: Konut Kredisi - tenure: 84 - principal: 50000
saved for loan_type: Konut Kredisi - tenure: 84 - principal: 100000
saved for loan_type: Konut Kredisi - tenure: 84 - principal: 150000
saved for loan_type: Konut Kredisi - tenure: 84 - principal: 200000
saved for loan_type: Konut Kredisi - tenure: 96 - principal: 50000
saved for loan_type: Konut Kredisi - tenure: 96 - principal: 100000
saved for loan_type: Konut Kredisi - tenure: 96 - principal: 150000
saved for loan_type: Konut Kredisi - tenure: 96 - principal: 200000
saved for loan_type: Konut Kredisi - tenure: 108 - principal: 50000
saved for loan_type: Konut Kredisi - tenure: 108 - principal: 100000
saved for loan_type: Konut Kredisi - tenure: 108 - principal: 150000
saved for loan_type: Konut Kredisi - tenure: 108 - principal: 200000
saved for loan_type: Konut Kredisi - tenure: 120 - principal: 50000
saved for loan_type: Konut Kredisi - tenure: 120 - principal: 100000
saved for loan_type: Konut Kredisi - tenure: 120 - principal: 150000
saved for loan_type: Konut Kredisi - tenure: 120 - principal: 200000
saved for Konut Kredisi
saved for loan_type: İhtiyaç Kredisi - tenure: 3 - principal: 5000
saved for loan_type: İhtiyaç Kredisi - tenure: 3 - principal: 10000
saved for loan_type: İhtiyaç Kredisi - tenure: 3 - principal: 15000
saved for loan_type: İhtiyaç Kredisi - tenure: 3 - principal: 20000
saved for loan_type: İhtiyaç Kredisi - tenure: 3 - principal: 30000
saved for loan_type: İhtiyaç Kredisi - tenure: 3 - principal: 40000
saved for loan_type: İhtiyaç Kredisi - tenure: 3 - principal: 50000
saved for loan_type: İhtiyaç Kredisi - tenure: 6 - principal: 5000
saved for loan_type: İhtiyaç Kredisi - tenure: 6 - principal: 10000
saved for loan_type: İhtiyaç Kredisi - tenure: 6 - principal: 15000
saved for loan_type: İhtiyaç Kredisi - tenure: 6 - principal: 20000
saved for loan_type: İhtiyaç Kredisi - tenure: 6 - principal: 30000
saved for loan_type: İhtiyaç Kredisi - tenure: 6 - principal: 40000
saved for loan_type: İhtiyaç Kredisi - tenure: 6 - principal: 50000
saved for loan_type: İhtiyaç Kredisi - tenure: 9 - principal: 5000
saved for loan_type: İhtiyaç Kredisi - tenure: 9 - principal: 10000
saved for loan_type: İhtiyaç Kredisi - tenure: 9 - principal: 15000
saved for loan_type: İhtiyaç Kredisi - tenure: 9 - principal: 20000
saved for loan_type: İhtiyaç Kredisi - tenure: 9 - principal: 30000
saved for loan_type: İhtiyaç Kredisi - tenure: 9 - principal: 40000
saved for loan_type: İhtiyaç Kredisi - tenure: 9 - principal: 50000
saved for loan_type: İhtiyaç Kredisi - tenure: 12 - principal: 5000
saved for loan_type: İhtiyaç Kredisi - tenure: 12 - principal: 10000
saved for loan_type: İhtiyaç Kredisi - tenure: 12 - principal: 15000
saved for loan_type: İhtiyaç Kredisi - tenure: 12 - principal: 20000
saved for loan_type: İhtiyaç Kredisi - tenure: 12 - principal: 30000
saved for loan_type: İhtiyaç Kredisi - tenure: 12 - principal: 40000
saved for loan_type: İhtiyaç Kredisi - tenure: 12 - principal: 50000
saved for loan_type: İhtiyaç Kredisi - tenure: 18 - principal: 5000
saved for loan_type: İhtiyaç Kredisi - tenure: 18 - principal: 10000
saved for loan_type: İhtiyaç Kredisi - tenure: 18 - principal: 15000
saved for loan_type: İhtiyaç Kredisi - tenure: 18 - principal: 20000
saved for loan_type: İhtiyaç Kredisi - tenure: 18 - principal: 30000
saved for loan_type: İhtiyaç Kredisi - tenure: 18 - principal: 40000
saved for loan_type: İhtiyaç Kredisi - tenure: 18 - principal: 50000
saved for loan_type: İhtiyaç Kredisi - tenure: 24 - principal: 5000
saved for loan_type: İhtiyaç Kredisi - tenure: 24 - principal: 10000
saved for loan_type: İhtiyaç Kredisi - tenure: 24 - principal: 15000
saved for loan_type: İhtiyaç Kredisi - tenure: 24 - principal: 20000
saved for loan_type: İhtiyaç Kredisi - tenure: 24 - principal: 30000
saved for loan_type: İhtiyaç Kredisi - tenure: 24 - principal: 40000
saved for loan_type: İhtiyaç Kredisi - tenure: 24 - principal: 50000
saved for loan_type: İhtiyaç Kredisi - tenure: 30 - principal: 5000
saved for loan_type: İhtiyaç Kredisi - tenure: 30 - principal: 10000
saved for loan_type: İhtiyaç Kredisi - tenure: 30 - principal: 15000
saved for loan_type: İhtiyaç Kredisi - tenure: 30 - principal: 20000
saved for loan_type: İhtiyaç Kredisi - tenure: 30 - principal: 30000
saved for loan_type: İhtiyaç Kredisi - tenure: 30 - principal: 40000
saved for loan_type: İhtiyaç Kredisi - tenure: 30 - principal: 50000
saved for loan_type: İhtiyaç Kredisi - tenure: 36 - principal: 5000
saved for loan_type: İhtiyaç Kredisi - tenure: 36 - principal: 10000
saved for loan_type: İhtiyaç Kredisi - tenure: 36 - principal: 15000
saved for loan_type: İhtiyaç Kredisi - tenure: 36 - principal: 20000
saved for loan_type: İhtiyaç Kredisi - tenure: 36 - principal: 30000
saved for loan_type: İhtiyaç Kredisi - tenure: 36 - principal: 40000
saved for loan_type: İhtiyaç Kredisi - tenure: 36 - principal: 50000
saved for İhtiyaç Kredisi
===================================
10/01/2021, 13:48:36: loan_summary_matrix.py ended

In [2]: Do you really want to exit ([y]/n)? 
