BASE_DIR: /hook
21/03/2021, 01:12:42: loan_summary_matrix.py started
===================================
saved for loan_type: Taşıt Kredisi 2. El - tenure: 6 - principal: 25000
saved for loan_type: Taşıt Kredisi 2. El - tenure: 12 - principal: 25000
saved for loan_type: Taşıt Kredisi 2. El - tenure: 18 - principal: 25000
saved for loan_type: Taşıt Kredisi 2. El - tenure: 24 - principal: 25000
saved for loan_type: Taşıt Kredisi 2. El - tenure: 30 - principal: 25000
saved for loan_type: Taşıt Kredisi 2. El - tenure: 24 - principal: 50000
saved for loan_type: Taşıt Kredisi 2. El - tenure: 36 - principal: 50000
saved for loan_type: Taşıt Kredisi 2. El - tenure: 48 - principal: 50000
saved for loan_type: Taşıt Kredisi 2. El - tenure: 60 - principal: 50000
saved for loan_type: Taşıt Kredisi 2. El - tenure: 24 - principal: 100000
saved for loan_type: Taşıt Kredisi 2. El - tenure: 36 - principal: 100000
saved for loan_type: Taşıt Kredisi 2. El - tenure: 48 - principal: 100000
saved for loan_type: Taşıt Kredisi 2. El - tenure: 60 - principal: 100000
saved for loan_type: Taşıt Kredisi 2. El - tenure: 24 - principal: 250000
saved for loan_type: Taşıt Kredisi 2. El - tenure: 36 - principal: 250000
saved for loan_type: Taşıt Kredisi 2. El - tenure: 48 - principal: 250000
saved for loan_type: Taşıt Kredisi 2. El - tenure: 60 - principal: 250000
saved for loan_type: Taşıt Kredisi 2. El - tenure: 24 - principal: 500000
saved for loan_type: Taşıt Kredisi 2. El - tenure: 36 - principal: 500000
saved for loan_type: Taşıt Kredisi 2. El - tenure: 48 - principal: 500000
saved for loan_type: Taşıt Kredisi 2. El - tenure: 60 - principal: 500000
saved for loan_type: Taşıt Kredisi 2. El - tenure: 36 - principal: 25000
saved for loan_type: Taşıt Kredisi 2. El - tenure: 48 - principal: 25000
saved for loan_type: Taşıt Kredisi 2. El - tenure: 60 - principal: 25000
saved for loan_type: Taşıt Kredisi 2. El - tenure: 6 - principal: 50000
saved for loan_type: Taşıt Kredisi 2. El - tenure: 12 - principal: 50000
saved for loan_type: Taşıt Kredisi 2. El - tenure: 18 - principal: 50000
saved for loan_type: Taşıt Kredisi 2. El - tenure: 30 - principal: 50000
saved for loan_type: Taşıt Kredisi 2. El - tenure: 6 - principal: 100000
saved for loan_type: Taşıt Kredisi 2. El - tenure: 12 - principal: 100000
saved for loan_type: Taşıt Kredisi 2. El - tenure: 18 - principal: 100000
saved for loan_type: Taşıt Kredisi 2. El - tenure: 30 - principal: 100000
saved for loan_type: Taşıt Kredisi 2. El - tenure: 6 - principal: 250000
saved for loan_type: Taşıt Kredisi 2. El - tenure: 12 - principal: 250000
saved for loan_type: Taşıt Kredisi 2. El - tenure: 18 - principal: 250000
saved for loan_type: Taşıt Kredisi 2. El - tenure: 30 - principal: 250000
saved for loan_type: Taşıt Kredisi 2. El - tenure: 6 - principal: 500000
saved for loan_type: Taşıt Kredisi 2. El - tenure: 12 - principal: 500000
saved for loan_type: Taşıt Kredisi 2. El - tenure: 18 - principal: 500000
saved for loan_type: Taşıt Kredisi 2. El - tenure: 30 - principal: 500000
saved for loan_type: Taşıt Kredisi 2. El - tenure: 6 - principal: 1000000
saved for loan_type: Taşıt Kredisi 2. El - tenure: 12 - principal: 1000000
saved for loan_type: Taşıt Kredisi 2. El - tenure: 18 - principal: 1000000
saved for loan_type: Taşıt Kredisi 2. El - tenure: 24 - principal: 1000000
saved for loan_type: Taşıt Kredisi 2. El - tenure: 30 - principal: 1000000
saved for loan_type: Taşıt Kredisi 2. El - tenure: 36 - principal: 1000000
saved for loan_type: Taşıt Kredisi 2. El - tenure: 48 - principal: 1000000
saved for loan_type: Taşıt Kredisi 2. El - tenure: 60 - principal: 1000000
saved for Taşıt Kredisi 2. El
saved for loan_type: Taşıt Kredisi 0 Km - tenure: 6 - principal: 25000
saved for loan_type: Taşıt Kredisi 0 Km - tenure: 12 - principal: 25000
saved for loan_type: Taşıt Kredisi 0 Km - tenure: 18 - principal: 25000
saved for loan_type: Taşıt Kredisi 0 Km - tenure: 24 - principal: 25000
saved for loan_type: Taşıt Kredisi 0 Km - tenure: 30 - principal: 25000
saved for loan_type: Taşıt Kredisi 0 Km - tenure: 36 - principal: 25000
saved for loan_type: Taşıt Kredisi 0 Km - tenure: 24 - principal: 50000
saved for loan_type: Taşıt Kredisi 0 Km - tenure: 36 - principal: 50000
saved for loan_type: Taşıt Kredisi 0 Km - tenure: 48 - principal: 50000
saved for loan_type: Taşıt Kredisi 0 Km - tenure: 60 - principal: 50000
saved for loan_type: Taşıt Kredisi 0 Km - tenure: 24 - principal: 100000
saved for loan_type: Taşıt Kredisi 0 Km - tenure: 36 - principal: 100000
saved for loan_type: Taşıt Kredisi 0 Km - tenure: 48 - principal: 100000
saved for loan_type: Taşıt Kredisi 0 Km - tenure: 60 - principal: 100000
saved for loan_type: Taşıt Kredisi 0 Km - tenure: 24 - principal: 250000
saved for loan_type: Taşıt Kredisi 0 Km - tenure: 36 - principal: 250000
saved for loan_type: Taşıt Kredisi 0 Km - tenure: 48 - principal: 250000
saved for loan_type: Taşıt Kredisi 0 Km - tenure: 60 - principal: 250000
saved for loan_type: Taşıt Kredisi 0 Km - tenure: 24 - principal: 500000
saved for loan_type: Taşıt Kredisi 0 Km - tenure: 36 - principal: 500000
saved for loan_type: Taşıt Kredisi 0 Km - tenure: 48 - principal: 500000
saved for loan_type: Taşıt Kredisi 0 Km - tenure: 60 - principal: 500000
saved for loan_type: Taşıt Kredisi 0 Km - tenure: 48 - principal: 25000
saved for loan_type: Taşıt Kredisi 0 Km - tenure: 60 - principal: 25000
saved for loan_type: Taşıt Kredisi 0 Km - tenure: 6 - principal: 50000
saved for loan_type: Taşıt Kredisi 0 Km - tenure: 12 - principal: 50000
saved for loan_type: Taşıt Kredisi 0 Km - tenure: 18 - principal: 50000
saved for loan_type: Taşıt Kredisi 0 Km - tenure: 30 - principal: 50000
saved for loan_type: Taşıt Kredisi 0 Km - tenure: 6 - principal: 100000
saved for loan_type: Taşıt Kredisi 0 Km - tenure: 12 - principal: 100000
saved for loan_type: Taşıt Kredisi 0 Km - tenure: 18 - principal: 100000
saved for loan_type: Taşıt Kredisi 0 Km - tenure: 30 - principal: 100000
saved for loan_type: Taşıt Kredisi 0 Km - tenure: 6 - principal: 250000
saved for loan_type: Taşıt Kredisi 0 Km - tenure: 12 - principal: 250000
saved for loan_type: Taşıt Kredisi 0 Km - tenure: 18 - principal: 250000
saved for loan_type: Taşıt Kredisi 0 Km - tenure: 30 - principal: 250000
saved for loan_type: Taşıt Kredisi 0 Km - tenure: 6 - principal: 500000
saved for loan_type: Taşıt Kredisi 0 Km - tenure: 12 - principal: 500000
saved for loan_type: Taşıt Kredisi 0 Km - tenure: 18 - principal: 500000
saved for loan_type: Taşıt Kredisi 0 Km - tenure: 30 - principal: 500000
saved for loan_type: Taşıt Kredisi 0 Km - tenure: 6 - principal: 1000000
saved for loan_type: Taşıt Kredisi 0 Km - tenure: 12 - principal: 1000000
saved for loan_type: Taşıt Kredisi 0 Km - tenure: 18 - principal: 1000000
saved for loan_type: Taşıt Kredisi 0 Km - tenure: 24 - principal: 1000000
saved for loan_type: Taşıt Kredisi 0 Km - tenure: 30 - principal: 1000000
saved for loan_type: Taşıt Kredisi 0 Km - tenure: 36 - principal: 1000000
saved for loan_type: Taşıt Kredisi 0 Km - tenure: 48 - principal: 1000000
saved for loan_type: Taşıt Kredisi 0 Km - tenure: 60 - principal: 1000000
saved for Taşıt Kredisi 0 Km
saved for loan_type: Konut Kredisi - tenure: 60 - principal: 250000
saved for loan_type: Konut Kredisi - tenure: 96 - principal: 250000
saved for loan_type: Konut Kredisi - tenure: 120 - principal: 250000
saved for loan_type: Konut Kredisi - tenure: 60 - principal: 500000
saved for loan_type: Konut Kredisi - tenure: 96 - principal: 500000
saved for loan_type: Konut Kredisi - tenure: 120 - principal: 500000
saved for loan_type: Konut Kredisi - tenure: 60 - principal: 1000000
saved for loan_type: Konut Kredisi - tenure: 96 - principal: 1000000
saved for loan_type: Konut Kredisi - tenure: 12 - principal: 100000
saved for loan_type: Konut Kredisi - tenure: 24 - principal: 100000
saved for loan_type: Konut Kredisi - tenure: 36 - principal: 100000
saved for loan_type: Konut Kredisi - tenure: 48 - principal: 100000
saved for loan_type: Konut Kredisi - tenure: 60 - principal: 100000
saved for loan_type: Konut Kredisi - tenure: 72 - principal: 100000
saved for loan_type: Konut Kredisi - tenure: 84 - principal: 100000
saved for loan_type: Konut Kredisi - tenure: 96 - principal: 100000
saved for loan_type: Konut Kredisi - tenure: 108 - principal: 100000
saved for loan_type: Konut Kredisi - tenure: 120 - principal: 100000
saved for loan_type: Konut Kredisi - tenure: 12 - principal: 250000
saved for loan_type: Konut Kredisi - tenure: 24 - principal: 250000
saved for loan_type: Konut Kredisi - tenure: 36 - principal: 250000
saved for loan_type: Konut Kredisi - tenure: 48 - principal: 250000
saved for loan_type: Konut Kredisi - tenure: 72 - principal: 250000
saved for loan_type: Konut Kredisi - tenure: 84 - principal: 250000
saved for loan_type: Konut Kredisi - tenure: 108 - principal: 250000
saved for loan_type: Konut Kredisi - tenure: 12 - principal: 500000
saved for loan_type: Konut Kredisi - tenure: 24 - principal: 500000
saved for loan_type: Konut Kredisi - tenure: 36 - principal: 500000
saved for loan_type: Konut Kredisi - tenure: 48 - principal: 500000
saved for loan_type: Konut Kredisi - tenure: 72 - principal: 500000
saved for loan_type: Konut Kredisi - tenure: 84 - principal: 500000
saved for loan_type: Konut Kredisi - tenure: 108 - principal: 500000
saved for loan_type: Konut Kredisi - tenure: 12 - principal: 1000000
saved for loan_type: Konut Kredisi - tenure: 24 - principal: 1000000
saved for loan_type: Konut Kredisi - tenure: 36 - principal: 1000000
saved for loan_type: Konut Kredisi - tenure: 48 - principal: 1000000
saved for loan_type: Konut Kredisi - tenure: 72 - principal: 1000000
saved for loan_type: Konut Kredisi - tenure: 84 - principal: 1000000
saved for loan_type: Konut Kredisi - tenure: 108 - principal: 1000000
saved for loan_type: Konut Kredisi - tenure: 12 - principal: 2000000
saved for loan_type: Konut Kredisi - tenure: 24 - principal: 2000000
saved for loan_type: Konut Kredisi - tenure: 36 - principal: 2000000
saved for loan_type: Konut Kredisi - tenure: 48 - principal: 2000000
saved for loan_type: Konut Kredisi - tenure: 72 - principal: 2000000
saved for loan_type: Konut Kredisi - tenure: 84 - principal: 2000000
saved for loan_type: Konut Kredisi - tenure: 108 - principal: 2000000
saved for loan_type: Konut Kredisi - tenure: 12 - principal: 5000000
saved for loan_type: Konut Kredisi - tenure: 24 - principal: 5000000
saved for loan_type: Konut Kredisi - tenure: 36 - principal: 5000000
saved for loan_type: Konut Kredisi - tenure: 48 - principal: 5000000
saved for loan_type: Konut Kredisi - tenure: 60 - principal: 5000000
saved for loan_type: Konut Kredisi - tenure: 72 - principal: 5000000
saved for loan_type: Konut Kredisi - tenure: 84 - principal: 5000000
saved for loan_type: Konut Kredisi - tenure: 96 - principal: 5000000
saved for loan_type: Konut Kredisi - tenure: 108 - principal: 5000000
saved for loan_type: Konut Kredisi - tenure: 120 - principal: 5000000
saved for loan_type: Konut Kredisi - tenure: 132 - principal: 100000
saved for loan_type: Konut Kredisi - tenure: 144 - principal: 100000
saved for loan_type: Konut Kredisi - tenure: 156 - principal: 100000
saved for loan_type: Konut Kredisi - tenure: 168 - principal: 100000
saved for loan_type: Konut Kredisi - tenure: 180 - principal: 100000
saved for loan_type: Konut Kredisi - tenure: 132 - principal: 250000
saved for loan_type: Konut Kredisi - tenure: 144 - principal: 250000
saved for loan_type: Konut Kredisi - tenure: 156 - principal: 250000
saved for loan_type: Konut Kredisi - tenure: 168 - principal: 250000
saved for loan_type: Konut Kredisi - tenure: 132 - principal: 500000
saved for loan_type: Konut Kredisi - tenure: 144 - principal: 500000
saved for loan_type: Konut Kredisi - tenure: 156 - principal: 500000
saved for loan_type: Konut Kredisi - tenure: 168 - principal: 500000
saved for loan_type: Konut Kredisi - tenure: 132 - principal: 1000000
saved for loan_type: Konut Kredisi - tenure: 144 - principal: 1000000
saved for loan_type: Konut Kredisi - tenure: 156 - principal: 1000000
saved for loan_type: Konut Kredisi - tenure: 168 - principal: 1000000
saved for loan_type: Konut Kredisi - tenure: 132 - principal: 2000000
saved for loan_type: Konut Kredisi - tenure: 144 - principal: 2000000
saved for loan_type: Konut Kredisi - tenure: 156 - principal: 2000000
saved for loan_type: Konut Kredisi - tenure: 168 - principal: 2000000
saved for loan_type: Konut Kredisi - tenure: 132 - principal: 5000000
saved for loan_type: Konut Kredisi - tenure: 144 - principal: 5000000
saved for loan_type: Konut Kredisi - tenure: 156 - principal: 5000000
saved for loan_type: Konut Kredisi - tenure: 168 - principal: 5000000
saved for loan_type: Konut Kredisi - tenure: 180 - principal: 5000000
saved for loan_type: Konut Kredisi - tenure: 60 - principal: 2000000
saved for loan_type: Konut Kredisi - tenure: 96 - principal: 2000000
saved for loan_type: Konut Kredisi - tenure: 120 - principal: 2000000
saved for loan_type: Konut Kredisi - tenure: 180 - principal: 2000000
saved for loan_type: Konut Kredisi - tenure: 120 - principal: 1000000
saved for loan_type: Konut Kredisi - tenure: 180 - principal: 250000
saved for loan_type: Konut Kredisi - tenure: 180 - principal: 500000
saved for loan_type: Konut Kredisi - tenure: 180 - principal: 1000000
saved for Konut Kredisi
saved for loan_type: İhtiyaç Kredisi - tenure: 3 - principal: 100000
saved for loan_type: İhtiyaç Kredisi - tenure: 3 - principal: 150000
saved for loan_type: İhtiyaç Kredisi - tenure: 6 - principal: 150000
saved for loan_type: İhtiyaç Kredisi - tenure: 3 - principal: 200000
saved for loan_type: İhtiyaç Kredisi - tenure: 6 - principal: 200000
saved for loan_type: İhtiyaç Kredisi - tenure: 3 - principal: 250000
saved for loan_type: İhtiyaç Kredisi - tenure: 6 - principal: 250000
saved for loan_type: İhtiyaç Kredisi - tenure: 6 - principal: 100000
saved for loan_type: İhtiyaç Kredisi - tenure: 6 - principal: 15000
saved for loan_type: İhtiyaç Kredisi - tenure: 24 - principal: 15000
saved for loan_type: İhtiyaç Kredisi - tenure: 6 - principal: 30000
saved for loan_type: İhtiyaç Kredisi - tenure: 12 - principal: 30000
saved for loan_type: İhtiyaç Kredisi - tenure: 6 - principal: 40000
saved for loan_type: İhtiyaç Kredisi - tenure: 9 - principal: 5000
saved for loan_type: İhtiyaç Kredisi - tenure: 9 - principal: 10000
saved for loan_type: İhtiyaç Kredisi - tenure: 9 - principal: 15000
saved for loan_type: İhtiyaç Kredisi - tenure: 9 - principal: 20000
saved for loan_type: İhtiyaç Kredisi - tenure: 9 - principal: 30000
saved for loan_type: İhtiyaç Kredisi - tenure: 9 - principal: 40000
saved for loan_type: İhtiyaç Kredisi - tenure: 9 - principal: 50000
saved for loan_type: İhtiyaç Kredisi - tenure: 12 - principal: 10000
saved for loan_type: İhtiyaç Kredisi - tenure: 12 - principal: 40000
saved for loan_type: İhtiyaç Kredisi - tenure: 18 - principal: 5000
saved for loan_type: İhtiyaç Kredisi - tenure: 18 - principal: 10000
saved for loan_type: İhtiyaç Kredisi - tenure: 18 - principal: 15000
saved for loan_type: İhtiyaç Kredisi - tenure: 18 - principal: 20000
saved for loan_type: İhtiyaç Kredisi - tenure: 18 - principal: 30000
saved for loan_type: İhtiyaç Kredisi - tenure: 18 - principal: 40000
saved for loan_type: İhtiyaç Kredisi - tenure: 18 - principal: 50000
saved for loan_type: İhtiyaç Kredisi - tenure: 24 - principal: 10000
saved for loan_type: İhtiyaç Kredisi - tenure: 24 - principal: 40000
saved for loan_type: İhtiyaç Kredisi - tenure: 30 - principal: 5000
saved for loan_type: İhtiyaç Kredisi - tenure: 30 - principal: 10000
saved for loan_type: İhtiyaç Kredisi - tenure: 30 - principal: 15000
saved for loan_type: İhtiyaç Kredisi - tenure: 30 - principal: 20000
saved for loan_type: İhtiyaç Kredisi - tenure: 30 - principal: 30000
saved for loan_type: İhtiyaç Kredisi - tenure: 30 - principal: 40000
saved for loan_type: İhtiyaç Kredisi - tenure: 12 - principal: 15000
saved for loan_type: İhtiyaç Kredisi - tenure: 36 - principal: 15000
saved for loan_type: İhtiyaç Kredisi - tenure: 24 - principal: 30000
saved for loan_type: İhtiyaç Kredisi - tenure: 36 - principal: 30000
saved for loan_type: İhtiyaç Kredisi - tenure: 9 - principal: 100000
saved for loan_type: İhtiyaç Kredisi - tenure: 18 - principal: 100000
saved for loan_type: İhtiyaç Kredisi - tenure: 30 - principal: 100000
saved for loan_type: İhtiyaç Kredisi - tenure: 9 - principal: 150000
saved for loan_type: İhtiyaç Kredisi - tenure: 12 - principal: 150000
saved for loan_type: İhtiyaç Kredisi - tenure: 18 - principal: 150000
saved for loan_type: İhtiyaç Kredisi - tenure: 24 - principal: 150000
saved for loan_type: İhtiyaç Kredisi - tenure: 30 - principal: 150000
saved for loan_type: İhtiyaç Kredisi - tenure: 36 - principal: 150000
saved for loan_type: İhtiyaç Kredisi - tenure: 9 - principal: 200000
saved for loan_type: İhtiyaç Kredisi - tenure: 12 - principal: 200000
saved for loan_type: İhtiyaç Kredisi - tenure: 18 - principal: 200000
saved for loan_type: İhtiyaç Kredisi - tenure: 24 - principal: 200000
saved for loan_type: İhtiyaç Kredisi - tenure: 30 - principal: 200000
saved for loan_type: İhtiyaç Kredisi - tenure: 36 - principal: 200000
saved for loan_type: İhtiyaç Kredisi - tenure: 9 - principal: 250000
saved for loan_type: İhtiyaç Kredisi - tenure: 12 - principal: 250000
saved for loan_type: İhtiyaç Kredisi - tenure: 18 - principal: 250000
saved for loan_type: İhtiyaç Kredisi - tenure: 24 - principal: 250000
saved for loan_type: İhtiyaç Kredisi - tenure: 30 - principal: 250000
saved for loan_type: İhtiyaç Kredisi - tenure: 36 - principal: 250000
saved for loan_type: İhtiyaç Kredisi - tenure: 30 - principal: 50000
saved for loan_type: İhtiyaç Kredisi - tenure: 3 - principal: 5000
saved for loan_type: İhtiyaç Kredisi - tenure: 3 - principal: 10000
saved for loan_type: İhtiyaç Kredisi - tenure: 3 - principal: 15000
saved for loan_type: İhtiyaç Kredisi - tenure: 3 - principal: 20000
saved for loan_type: İhtiyaç Kredisi - tenure: 3 - principal: 30000
saved for loan_type: İhtiyaç Kredisi - tenure: 3 - principal: 40000
saved for loan_type: İhtiyaç Kredisi - tenure: 3 - principal: 50000
saved for loan_type: İhtiyaç Kredisi - tenure: 6 - principal: 10000
saved for loan_type: İhtiyaç Kredisi - tenure: 36 - principal: 10000
saved for loan_type: İhtiyaç Kredisi - tenure: 36 - principal: 40000
saved for loan_type: İhtiyaç Kredisi - tenure: 6 - principal: 5000
saved for loan_type: İhtiyaç Kredisi - tenure: 36 - principal: 5000
saved for loan_type: İhtiyaç Kredisi - tenure: 36 - principal: 50000
saved for loan_type: İhtiyaç Kredisi - tenure: 12 - principal: 100000
saved for loan_type: İhtiyaç Kredisi - tenure: 24 - principal: 100000
saved for loan_type: İhtiyaç Kredisi - tenure: 36 - principal: 100000
saved for loan_type: İhtiyaç Kredisi - tenure: 12 - principal: 5000
saved for loan_type: İhtiyaç Kredisi - tenure: 24 - principal: 5000
saved for loan_type: İhtiyaç Kredisi - tenure: 6 - principal: 50000
saved for loan_type: İhtiyaç Kredisi - tenure: 12 - principal: 50000
saved for loan_type: İhtiyaç Kredisi - tenure: 24 - principal: 50000
saved for loan_type: İhtiyaç Kredisi - tenure: 6 - principal: 20000
saved for loan_type: İhtiyaç Kredisi - tenure: 12 - principal: 20000
saved for loan_type: İhtiyaç Kredisi - tenure: 24 - principal: 20000
saved for loan_type: İhtiyaç Kredisi - tenure: 36 - principal: 20000
saved for İhtiyaç Kredisi
===================================
21/03/2021, 01:12:50: loan_summary_matrix.py ended
