BASE_DIR: /hook
14/03/2021, 01:10:14: loan_summary.py started
===================================
working on: CA2
saved for bank: Vakıfbank
saved for bank: Kuveyt Türk
saved for bank: Yapı Kredi
saved for bank: ING
saved for bank: Akbank
saved for bank: QNB Finansbank
saved for bank: Fibabanka
saved for bank: Garanti BBVA
saved for bank: TEB
saved for bank: Halkbank
saved for bank: Ziraat Bankası
saved for bank: İş Bankası
saved for bank: Odeabank
saved for bank: Burgan Bank
saved for bank: HSBC
saved for bank: Vakıf Katılım
no loan found for bank: Ziraat Katılım
saved for bank: Şekerbank
no loan found for bank: Denizbank
saved for bank: Alternatif Bank
saved for bank: ICBC
saved for bank: Anadolubank
no loan found for bank: Enpara
no loan found for bank: TurkishBank
working on: CAR
saved for bank: Vakıfbank
no loan found for bank: Kuveyt Türk
saved for bank: Yapı Kredi
no loan found for bank: ING
saved for bank: Akbank
saved for bank: QNB Finansbank
saved for bank: Fibabanka
saved for bank: Garanti BBVA
no loan found for bank: TEB
saved for bank: Halkbank
saved for bank: Ziraat Bankası
saved for bank: İş Bankası
saved for bank: Odeabank
saved for bank: Burgan Bank
no loan found for bank: HSBC
saved for bank: Vakıf Katılım
saved for bank: Ziraat Katılım
no loan found for bank: Şekerbank
saved for bank: Denizbank
saved for bank: Alternatif Bank
no loan found for bank: ICBC
no loan found for bank: Anadolubank
no loan found for bank: Enpara
saved for bank: TurkishBank
working on: MOR
saved for bank: Vakıfbank
saved for bank: Kuveyt Türk
saved for bank: Yapı Kredi
saved for bank: ING
saved for bank: Akbank
saved for bank: QNB Finansbank
saved for bank: Fibabanka
saved for bank: Garanti BBVA
saved for bank: TEB
saved for bank: Halkbank
saved for bank: Ziraat Bankası
saved for bank: İş Bankası
saved for bank: Odeabank
saved for bank: Burgan Bank
saved for bank: HSBC
saved for bank: Vakıf Katılım
saved for bank: Ziraat Katılım
saved for bank: Şekerbank
saved for bank: Denizbank
saved for bank: Alternatif Bank
saved for bank: ICBC
saved for bank: Anadolubank
no loan found for bank: Enpara
no loan found for bank: TurkishBank
working on: GPL
saved for bank: Vakıfbank
saved for bank: Kuveyt Türk
saved for bank: Yapı Kredi
saved for bank: ING
saved for bank: Akbank
saved for bank: QNB Finansbank
no loan found for bank: Fibabanka
saved for bank: Garanti BBVA
saved for bank: TEB
saved for bank: Halkbank
saved for bank: Ziraat Bankası
saved for bank: İş Bankası
saved for bank: Odeabank
no loan found for bank: Burgan Bank
saved for bank: HSBC
no loan found for bank: Vakıf Katılım
saved for bank: Ziraat Katılım
saved for bank: Şekerbank
saved for bank: Denizbank
no loan found for bank: Alternatif Bank
no loan found for bank: ICBC
no loan found for bank: Anadolubank
saved for bank: Enpara
no loan found for bank: TurkishBank
===================================
14/03/2021, 01:10:19: loan_summary.py ended
