BASE_DIR: C:\hook
Python 3.7.9 (default, Aug 31 2020, 17:10:11) [MSC v.1916 64 bit (AMD64)]
Type 'copyright', 'credits' or 'license' for more information
IPython 7.19.0 -- An enhanced Interactive Python. Type '?' for help.

In [1]: 30/12/2020, 05:23:13: loan_summary.py started
===================================
working on: CA2
saved for bank: ING
saved for bank: Garanti BBVA
saved for bank: Yapı Kredi
saved for bank: Vakıf Katılım
saved for bank: İş Bankası
saved for bank: QNB Finansbank
saved for bank: Anadolubank
saved for bank: ICBC
saved for bank: Denizbank
saved for bank: TEB
saved for bank: Ziraat Bankası
saved for bank: Odeabank
saved for bank: Akbank
saved for bank: Şekerbank
saved for bank: Alternatif Bank
saved for bank: Vakıfbank
saved for bank: Kuveyt Türk
saved for bank: TurkishBank
saved for bank: Halkbank
saved for bank: HSBC
saved for bank: Ziraat Katılım
no loan found for bank: Enpara
saved for bank: Fibabanka
saved for bank: Burgan Bank
working on: CAR
saved for bank: ING
saved for bank: Garanti BBVA
saved for bank: Yapı Kredi
saved for bank: Vakıf Katılım
saved for bank: İş Bankası
saved for bank: QNB Finansbank
no loan found for bank: Anadolubank
no loan found for bank: ICBC
saved for bank: Denizbank
no loan found for bank: TEB
saved for bank: Ziraat Bankası
saved for bank: Odeabank
saved for bank: Akbank
no loan found for bank: Şekerbank
saved for bank: Alternatif Bank
saved for bank: Vakıfbank
no loan found for bank: Kuveyt Türk
saved for bank: TurkishBank
saved for bank: Halkbank
no loan found for bank: HSBC
saved for bank: Ziraat Katılım
no loan found for bank: Enpara
no loan found for bank: Fibabanka
saved for bank: Burgan Bank
working on: GPL
saved for bank: ING
saved for bank: Garanti BBVA
saved for bank: Yapı Kredi
no loan found for bank: Vakıf Katılım
saved for bank: İş Bankası
saved for bank: QNB Finansbank
no loan found for bank: Anadolubank
no loan found for bank: ICBC
saved for bank: Denizbank
saved for bank: TEB
saved for bank: Ziraat Bankası
saved for bank: Odeabank
saved for bank: Akbank
saved for bank: Şekerbank
no loan found for bank: Alternatif Bank
saved for bank: Vakıfbank
saved for bank: Kuveyt Türk
no loan found for bank: TurkishBank
saved for bank: Halkbank
no loan found for bank: HSBC
saved for bank: Ziraat Katılım
saved for bank: Enpara
no loan found for bank: Fibabanka
no loan found for bank: Burgan Bank
working on: MOR
saved for bank: ING
saved for bank: Garanti BBVA
saved for bank: Yapı Kredi
saved for bank: Vakıf Katılım
saved for bank: İş Bankası
saved for bank: QNB Finansbank
saved for bank: Anadolubank
saved for bank: ICBC
saved for bank: Denizbank
saved for bank: TEB
saved for bank: Ziraat Bankası
saved for bank: Odeabank
saved for bank: Akbank
saved for bank: Şekerbank
saved for bank: Alternatif Bank
saved for bank: Vakıfbank
saved for bank: Kuveyt Türk
no loan found for bank: TurkishBank
saved for bank: Halkbank
saved for bank: HSBC
saved for bank: Ziraat Katılım
no loan found for bank: Enpara
saved for bank: Fibabanka
saved for bank: Burgan Bank
===================================
30/12/2020, 05:24:10: loan_summary.py ended

In [2]: Do you really want to exit ([y]/n)? 
