BASE_DIR: /hook
== job start ==
Current Working Directory  /hook
-- CA2 --
[20000, 30000, 40000, 50000, 60000, 70000, 80000, 90000, 100000, 150000]
[6, 12, 18, 24, 30, 36, 48, 60]
aggregation started
EnUygun  started
HangiKredi  started
HesapKurdu  started
aggregation ended
creating: alert_log table
created: alert_log table
creating: scrape_status table
created: scrape_status table
creating: loans table
lo.shape:
(1495, 7)
cumulative shape:
(1495, 7)
Time passed
0:03:30.146868
-- CAR --
[20000, 30000, 40000, 50000, 60000, 70000, 80000, 90000, 100000, 150000]
[6, 12, 18, 24, 30, 36, 48, 60]
aggregation started
EnUygun  started
HangiKredi  started
HesapKurdu  started
aggregation ended
creating: alert_log table
no alert log
created: alert_log table
creating: scrape_status table
created: scrape_status table
creating: loans table
lo.shape:
(1690, 7)
cumulative shape:
(3185, 7)
Time passed
0:07:03.708895
-- MOR --
[50000, 100000, 150000, 200000]
[12, 24, 36, 48, 60, 72, 84, 96, 108, 120]
aggregation started
EnUygun  started
HangiKredi  started
HesapKurdu  started
aggregation ended
creating: alert_log table
no alert log
created: alert_log table
creating: scrape_status table
created: scrape_status table
creating: loans table
lo.shape:
(880, 7)
cumulative shape:
(4065, 7)
Time passed
0:08:30.946608
-- GPL --
[5000, 10000, 15000, 20000, 30000, 40000, 50000]
[3, 6, 9, 12, 18, 24, 30, 36]
aggregation started
EnUygun  started
HangiKredi  started
HesapKurdu  started
aggregation ended
creating: alert_log table
created: alert_log table
creating: scrape_status table
created: scrape_status table
creating: loans table
lo.shape:
(448, 7)
cumulative shape:
(4513, 7)
Time passed
0:09:56.206473
== job end ==
