BASE_DIR: /hook
== job start ==
Current Working Directory  /hook
-- CA2 --
[20000, 30000, 40000, 50000, 60000, 70000, 80000, 90000, 100000, 150000]
[6, 12, 18, 24, 30, 36, 48, 60]
aggregation started
EnUygun  started
HangiKredi  started
HesapKurdu  started
aggregation ended
creating: alert_log table
created: alert_log table
creating: scrape_status table
created: scrape_status table
creating: loans table
lo.shape:
(1495, 7)
cumulative shape:
(1495, 7)
Time passed
0:03:38.909297
-- CAR --
[20000, 30000, 40000, 50000, 60000, 70000, 80000, 90000, 100000, 150000]
[6, 12, 18, 24, 30, 36, 48, 60]
aggregation started
EnUygun  started
HangiKredi  started
HesapKurdu  started
aggregation ended
creating: alert_log table
no alert log
created: alert_log table
creating: scrape_status table
created: scrape_status table
creating: loans table
lo.shape:
(1690, 7)
cumulative shape:
(3185, 7)
Time passed
0:07:20.258864
-- MOR --
[50000, 100000, 150000, 200000]
[12, 24, 36, 48, 60, 72, 84, 96, 108, 120]
aggregation started
EnUygun  started
HangiKredi  started
HesapKurdu  started
aggregation ended
creating: alert_log table
no alert log
created: alert_log table
creating: scrape_status table
created: scrape_status table
creating: loans table
lo.shape:
(880, 7)
cumulative shape:
(4065, 7)
Time passed
0:08:40.105219
-- GPL --
[5000, 10000, 15000, 20000, 30000, 40000, 50000]
[3, 6, 9, 12, 18, 24, 30, 36]
aggregation started
EnUygun  started
HangiKredi  started
HesapKurdu  started
aggregation ended
creating: alert_log table
no alert log
created: alert_log table
creating: scrape_status table
created: scrape_status table
creating: loans table
lo.shape:
(928, 7)
cumulative shape:
(4993, 7)
Time passed
0:10:07.158295
== job end ==
BASE_DIR: /hook
== job start ==
Current Working Directory  /hook
-- CA2 --
[25000, 50000, 100000, 250000, 500000, 1000000]
[6, 12, 18, 24, 30, 36, 48, 60]
aggregation started
EnUygun  started
HangiKredi  started
HesapKurdu  started
aggregation ended
creating: alert_log table
no alert log
created: alert_log table
creating: scrape_status table
created: scrape_status table
creating: loans table
lo.shape:
(820, 7)
cumulative shape:
(820, 7)
Time passed
0:01:50.289718
-- CAR --
[25000, 50000, 100000, 250000, 500000, 1000000]
[6, 12, 18, 24, 30, 36, 48, 60]
aggregation started
EnUygun  started
HangiKredi  started
HesapKurdu  started
aggregation ended
creating: alert_log table
no alert log
created: alert_log table
creating: scrape_status table
created: scrape_status table
creating: loans table
lo.shape:
(834, 7)
cumulative shape:
(1654, 7)
Time passed
0:03:43.314959
-- MOR --
[100000, 250000, 500000, 1000000, 2000000, 5000000]
[12, 24, 36, 48, 60, 72, 84, 96, 108, 120]
aggregation started
EnUygun  started
HangiKredi  started
HesapKurdu  started
aggregation ended
creating: alert_log table
no alert log
created: alert_log table
creating: scrape_status table
created: scrape_status table
creating: loans table
lo.shape:
(1080, 7)
cumulative shape:
(2734, 7)
Time passed
0:05:19.613096
-- GPL --
[5000, 10000, 15000, 20000, 30000, 40000, 50000, 100000, 150000, 200000, 250000]
[3, 6, 9, 12, 18, 24, 30, 36]
aggregation started
EnUygun  started
HangiKredi  started
HesapKurdu  started
aggregation ended
creating: alert_log table
no alert log
created: alert_log table
creating: scrape_status table
created: scrape_status table
creating: loans table
lo.shape:
(1240, 7)
cumulative shape:
(3974, 7)
Time passed
0:07:18.370695
== job end ==
BASE_DIR: /hook
== job start ==
Current Working Directory  /hook
-- CA2 --
[25000, 50000, 100000, 250000, 500000, 1000000]
[6, 12, 18, 24, 30, 36, 48, 60]
aggregation started
EnUygun  started
HangiKredi  started
HesapKurdu  started
aggregation ended
creating: alert_log table
no alert log
created: alert_log table
creating: scrape_status table
created: scrape_status table
creating: loans table
lo.shape:
(820, 7)
cumulative shape:
(820, 7)
Time passed
0:01:46.730264
-- CAR --
[25000, 50000, 100000, 250000, 500000, 1000000]
[6, 12, 18, 24, 30, 36, 48, 60]
aggregation started
EnUygun  started
HangiKredi  started
HesapKurdu  started
aggregation ended
creating: alert_log table
no alert log
created: alert_log table
creating: scrape_status table
created: scrape_status table
creating: loans table
lo.shape:
(834, 7)
cumulative shape:
(1654, 7)
Time passed
0:03:32.007706
-- MOR --
[100000, 250000, 500000, 1000000, 2000000, 5000000]
[12, 24, 36, 48, 60, 72, 84, 96, 108, 120, 132, 144, 156, 168, 180]
aggregation started
EnUygun  started
HangiKredi  started
HesapKurdu  started
aggregation ended
creating: alert_log table
no alert log
created: alert_log table
creating: scrape_status table
created: scrape_status table
creating: loans table
lo.shape:
(1155, 7)
cumulative shape:
(2809, 7)
Time passed
0:05:50.073620
-- GPL --
[5000, 10000, 15000, 20000, 30000, 40000, 50000, 100000, 150000, 200000, 250000]
[3, 6, 9, 12, 18, 24, 30, 36]
aggregation started
EnUygun  started
HangiKredi  started
HesapKurdu  started
aggregation ended
creating: alert_log table
no alert log
created: alert_log table
creating: scrape_status table
created: scrape_status table
creating: loans table
lo.shape:
(1240, 7)
cumulative shape:
(4049, 7)
Time passed
0:07:55.911701
== job end ==
