BASE_DIR: C:\hook
Python 3.7.9 (default, Aug 31 2020, 17:10:11) [MSC v.1916 64 bit (AMD64)]
Type 'copyright', 'credits' or 'license' for more information
IPython 7.19.0 -- An enhanced Interactive Python. Type '?' for help.

In [1]: 
In [2]: 
In [3]: 
In [3]: 
In [4]: 
In [4]: 
In [4]:    ...:    ...:    ...: Out[4]: '\nrun script via:\n> python manage.py shell < scripts/scrape/1.0.1/main_lxml.py >> scripts/scrape/1.0.1/data/scrape_job_log/scrape_job_log.txt \n'

In [5]: == job start ==

In [6]: 
In [7]: 
In [8]: 
In [9]: 
In [10]: 
In [11]: Current Working Directory  C:\hook

In [12]: 
In [13]: 
In [14]: 
In [15]: 
In [16]: 
In [17]: 
In [18]: 
In [19]: 
In [20]: 
In [21]: 
In [21]: 
In [22]: 
In [22]: 
In [23]: 
In [23]: 
In [24]:     ...:     ...:     ...:     ...:     ...:     ...:     ...:     ...:     ...:     ...:     ...:     ...:     ...:     ...:     ...:     ...:     ...:     ...:     ...:     ...:     ...:     ...:     ...:     ...:     ...:     ...:     ...:     ...:     ...:     ...:     ...:     ...:     ...:     ...:     ...:     ...:     ...:     ...:     ...:     ...:     ...:     ...:     ...:     ...:     ...:     ...:     ...:     ...:     ...:     ...:     ...: -- CA2 --
[20000, 30000, 40000, 50000, 60000, 70000, 80000, 90000, 100000, 150000]
[6, 12, 18, 24, 30, 36, 48, 60]
aggregation started
EnUygun  started
HangiKredi  started
HesapKurdu  started
aggregation ended
creating: alert_log table
created: alert_log table
creating: scrape_status table
created: scrape_status table
creating: loans table
lo.shape:
(1378, 7)
cumulative shape:
(1378, 7)
Time passed
0:03:44.968838
-- CAR --
[20000, 30000, 40000, 50000, 60000, 70000, 80000, 90000, 100000, 150000]
[6, 12, 18, 24, 30, 36, 48, 60]
aggregation started
EnUygun  started
HangiKredi  started
HesapKurdu  started
aggregation ended
creating: alert_log table
no alert log
created: alert_log table
creating: scrape_status table
created: scrape_status table
creating: loans table
lo.shape:
(1587, 7)
cumulative shape:
(2965, 7)
Time passed
0:07:30.390867
-- MOR --
[50000, 100000, 150000, 200000]
[12, 24, 36, 48, 60, 72, 84, 96, 108, 120]
aggregation started
EnUygun  started
HangiKredi  started
HesapKurdu  started
aggregation ended
creating: alert_log table
no alert log
created: alert_log table
creating: scrape_status table
created: scrape_status table
creating: loans table
lo.shape:
(880, 7)
cumulative shape:
(3845, 7)
Time passed
0:08:53.937747
-- GPL --
[5000, 10000, 15000, 20000, 30000, 40000, 50000]
[3, 6, 9, 12, 18, 24, 30, 36]
aggregation started
EnUygun  started
HangiKredi  started
HesapKurdu  started
aggregation ended
creating: alert_log table
no alert log
created: alert_log table
creating: scrape_status table
created: scrape_status table
creating: loans table
lo.shape:
(784, 7)
cumulative shape:
(4629, 7)
Time passed
0:10:47.734672

In [25]: 
In [25]: 
In [26]: 
In [27]: 
In [28]: == job end ==

In [29]: Do you really want to exit ([y]/n)? 
