BASE_DIR: /hook
== job start ==
Current Working Directory  /hook
-- CA2 --
[25000, 50000, 100000, 250000, 500000, 1000000]
[6, 12, 18, 24, 30, 36, 48, 60]
aggregation started
EnUygun  started
HangiKredi  started
HesapKurdu  started
aggregation ended
creating: alert_log table
created: alert_log table
creating: scrape_status table
created: scrape_status table
creating: loans table
lo.shape:
(672, 7)
cumulative shape:
(672, 7)
Time passed
0:02:49.271548
-- CAR --
[25000, 50000, 100000, 250000, 500000, 1000000]
[6, 12, 18, 24, 30, 36, 48, 60]
aggregation started
EnUygun  started
HangiKredi  started
HesapKurdu  started
aggregation ended
creating: alert_log table
no alert log
created: alert_log table
creating: scrape_status table
created: scrape_status table
creating: loans table
lo.shape:
(847, 7)
cumulative shape:
(1519, 7)
Time passed
0:05:25.451714
-- MOR --
[100000, 250000, 500000, 1000000, 2000000, 5000000]
[12, 24, 36, 48, 60, 72, 84, 96, 108, 120, 132, 144, 156, 168, 180]
aggregation started
EnUygun  started
HangiKredi  started
HesapKurdu  started
aggregation ended
creating: alert_log table
no alert log
created: alert_log table
creating: scrape_status table
created: scrape_status table
creating: loans table
lo.shape:
(1165, 7)
cumulative shape:
(2684, 7)
Time passed
0:09:11.432621
-- GPL --
[5000, 10000, 15000, 20000, 30000, 40000, 50000, 100000, 150000, 200000, 250000]
[3, 6, 9, 12, 18, 24, 30, 36]
aggregation started
EnUygun  started
HangiKredi  started
HesapKurdu  started
aggregation ended
creating: alert_log table
created: alert_log table
creating: scrape_status table
created: scrape_status table
creating: loans table
lo.shape:
(1146, 7)
cumulative shape:
(3830, 7)
Time passed
0:12:29.506594
== job end ==
