BASE_DIR: /hook
== job start ==
Current Working Directory  /hook
-- CA2 --
[25000, 50000, 100000, 250000, 500000, 1000000]
[6, 12, 18, 24, 30, 36, 48, 60]
aggregation started
EnUygun  started
HangiKredi  started
HesapKurdu  started
aggregation ended
creating: alert_log table
created: alert_log table
creating: scrape_status table
created: scrape_status table
creating: loans table
lo.shape:
(669, 7)
cumulative shape:
(669, 7)
Time passed
0:03:01.767581
-- CAR --
[25000, 50000, 100000, 250000, 500000, 1000000]
[6, 12, 18, 24, 30, 36, 48, 60]
aggregation started
EnUygun  started
HangiKredi  started
HesapKurdu  started
aggregation ended
creating: alert_log table
no alert log
created: alert_log table
creating: scrape_status table
created: scrape_status table
creating: loans table
lo.shape:
(834, 7)
cumulative shape:
(1503, 7)
Time passed
0:05:05.011849
-- MOR --
[100000, 250000, 500000, 1000000, 2000000, 5000000]
[12, 24, 36, 48, 60, 72, 84, 96, 108, 120, 132, 144, 156, 168, 180]
aggregation started
EnUygun  started
HangiKredi  started
HesapKurdu  started
aggregation ended
creating: alert_log table
no alert log
created: alert_log table
creating: scrape_status table
created: scrape_status table
creating: loans table
lo.shape:
(1155, 7)
cumulative shape:
(2658, 7)
Time passed
0:08:50.635371
-- GPL --
[5000, 10000, 15000, 20000, 30000, 40000, 50000, 100000, 150000, 200000, 250000]
[3, 6, 9, 12, 18, 24, 30, 36]
aggregation started
EnUygun  started
HangiKredi  started
HesapKurdu  started
aggregation ended
creating: alert_log table
created: alert_log table
creating: scrape_status table
created: scrape_status table
creating: loans table
lo.shape:
(824, 7)
cumulative shape:
(3482, 7)
Time passed
0:11:23.280779
== job end ==
