BASE_DIR: /hook
== job start ==
Current Working Directory  /hook
-- CA2 --
[25000, 50000, 100000, 250000, 500000, 1000000]
[6, 12, 18, 24, 30, 36, 48, 60]
aggregation started
EnUygun  started
HangiKredi  started
HesapKurdu  started
aggregation ended
creating: alert_log table
created: alert_log table
creating: scrape_status table
created: scrape_status table
creating: loans table
lo.shape:
(669, 7)
cumulative shape:
(669, 7)
Time passed
0:02:50.330164
-- CAR --
[25000, 50000, 100000, 250000, 500000, 1000000]
[6, 12, 18, 24, 30, 36, 48, 60]
aggregation started
EnUygun  started
HangiKredi  started
HesapKurdu  started
aggregation ended
creating: alert_log table
created: alert_log table
creating: scrape_status table
created: scrape_status table
creating: loans table
lo.shape:
(683, 7)
cumulative shape:
(1352, 7)
Time passed
0:05:20.479603
-- MOR --
[100000, 250000, 500000, 1000000, 2000000, 5000000]
[12, 24, 36, 48, 60, 72, 84, 96, 108, 120, 132, 144, 156, 168, 180]
aggregation started
EnUygun  started
HangiKredi  started
HesapKurdu  started
aggregation ended
creating: alert_log table
created: alert_log table
creating: scrape_status table
created: scrape_status table
creating: loans table
lo.shape:
(915, 7)
cumulative shape:
(2267, 7)
Time passed
0:11:15.808106
-- GPL --
[5000, 10000, 15000, 20000, 30000, 40000, 50000, 100000, 150000, 200000, 250000]
[3, 6, 9, 12, 18, 24, 30, 36]
aggregation started
EnUygun  started
HangiKredi  started
HesapKurdu  started
aggregation ended
creating: alert_log table
created: alert_log table
creating: scrape_status table
created: scrape_status table
creating: loans table
lo.shape:
(888, 7)
cumulative shape:
(3155, 7)
Time passed
0:16:03.653002
== job end ==
