BASE_DIR: /hook
== job start ==
Current Working Directory  /hook
-- CA2 --
[25000, 50000, 100000, 250000, 500000, 1000000]
[6, 12, 18, 24, 30, 36, 48, 60]
aggregation started
EnUygun  started
HangiKredi  started
HesapKurdu  started
aggregation ended
creating: alert_log table
no alert log
created: alert_log table
creating: scrape_status table
created: scrape_status table
creating: loans table
lo.shape:
(817, 7)
cumulative shape:
(817, 7)
Time passed
0:01:50.990514
-- CAR --
[25000, 50000, 100000, 250000, 500000, 1000000]
[6, 12, 18, 24, 30, 36, 48, 60]
aggregation started
EnUygun  started
HangiKredi  started
HesapKurdu  started
aggregation ended
creating: alert_log table
no alert log
created: alert_log table
creating: scrape_status table
created: scrape_status table
creating: loans table
lo.shape:
(841, 7)
cumulative shape:
(1658, 7)
Time passed
0:03:44.090024
-- MOR --
[100000, 250000, 500000, 1000000, 2000000, 5000000]
[12, 24, 36, 48, 60, 72, 84, 96, 108, 120, 132, 144, 156, 168, 180]
aggregation started
EnUygun  started
HangiKredi  started
HesapKurdu  started
aggregation ended
creating: alert_log table
no alert log
created: alert_log table
creating: scrape_status table
created: scrape_status table
creating: loans table
lo.shape:
(1155, 7)
cumulative shape:
(2813, 7)
Time passed
0:06:33.910938
-- GPL --
[5000, 10000, 15000, 20000, 30000, 40000, 50000, 100000, 150000, 200000, 250000]
[3, 6, 9, 12, 18, 24, 30, 36]
aggregation started
EnUygun  started
HangiKredi  started
HesapKurdu  started
aggregation ended
creating: alert_log table
created: alert_log table
creating: scrape_status table
created: scrape_status table
creating: loans table
lo.shape:
(824, 7)
cumulative shape:
(3637, 7)
Time passed
0:08:51.303051
== job end ==
BASE_DIR: /hook
== job start ==
Current Working Directory  /hook
-- CA2 --
[25000, 50000, 100000, 250000, 500000, 1000000]
[6, 12, 18, 24, 30, 36, 48, 60]
aggregation started
EnUygun  started
HangiKredi  started
HesapKurdu  started
aggregation ended
creating: alert_log table
created: alert_log table
creating: scrape_status table
created: scrape_status table
creating: loans table
lo.shape:
(666, 7)
cumulative shape:
(666, 7)
Time passed
0:01:55.284966
-- CAR --
[25000, 50000, 100000, 250000, 500000, 1000000]
[6, 12, 18, 24, 30, 36, 48, 60]
aggregation started
EnUygun  started
HangiKredi  started
HesapKurdu  started
aggregation ended
creating: alert_log table
no alert log
created: alert_log table
creating: scrape_status table
created: scrape_status table
creating: loans table
lo.shape:
(841, 7)
cumulative shape:
(1507, 7)
Time passed
0:03:37.522553
-- MOR --
[100000, 250000, 500000, 1000000, 2000000, 5000000]
[12, 24, 36, 48, 60, 72, 84, 96, 108, 120, 132, 144, 156, 168, 180]
aggregation started
EnUygun  started
HangiKredi  started
HesapKurdu  started
aggregation ended
creating: alert_log table
no alert log
created: alert_log table
creating: scrape_status table
created: scrape_status table
creating: loans table
lo.shape:
(1155, 7)
cumulative shape:
(2662, 7)
Time passed
0:05:51.206095
-- GPL --
[5000, 10000, 15000, 20000, 30000, 40000, 50000, 100000, 150000, 200000, 250000]
[3, 6, 9, 12, 18, 24, 30, 36]
aggregation started
EnUygun  started
HangiKredi  started
HesapKurdu  started
aggregation ended
creating: alert_log table
no alert log
created: alert_log table
creating: scrape_status table
created: scrape_status table
creating: loans table
lo.shape:
(1240, 7)
cumulative shape:
(3902, 7)
Time passed
0:07:58.197676
== job end ==
